Multi_Cycle_MicroProgram/build/mc_wave.vcd
$date
	Fri Dec 24 17:13:29 2021
$end
$version
	Icarus Verilog
$end
$timescale
	1ps
$end
$scope module MC_CPU_tb $end
$var reg 1 ! clk $end
$var reg 1 " reset $end
$var integer 32 # i [31:0] $end
$scope module mc_cpu $end
$var wire 6 $ ALUCU_funct [5:0] $end
$var wire 32 % ALUOut_in [31:0] $end
$var wire 32 & ALU_a [31:0] $end
$var wire 32 ' ALU_b [31:0] $end
$var wire 3 ( ALU_mod [2:0] $end
$var wire 32 ) A_in [31:0] $end
$var wire 32 * B_in [31:0] $end
$var wire 32 + DM_Addr [31:0] $end
$var wire 1 , DM_R $end
$var wire 1 - DM_W $end
$var wire 32 . DM_W_data [31:0] $end
$var wire 32 / Inst [31:0] $end
$var wire 32 0 MDR_in [31:0] $end
$var wire 1 1 MUX32_21_c $end
$var wire 32 2 MUX32_21_i0 [31:0] $end
$var wire 32 3 MUX32_21_i1 [31:0] $end
$var wire 1 4 MUX32_22_c $end
$var wire 32 5 MUX32_22_i0 [31:0] $end
$var wire 32 6 MUX32_22_i1 [31:0] $end
$var wire 1 7 MUX32_23_c $end
$var wire 32 8 MUX32_23_i0 [31:0] $end
$var wire 32 9 MUX32_23_i1 [31:0] $end
$var wire 2 : MUX32_41_c [1:0] $end
$var wire 32 ; MUX32_41_i0 [31:0] $end
$var wire 32 < MUX32_41_i1 [31:0] $end
$var wire 32 = MUX32_41_i3 [31:0] $end
$var wire 2 > MUX32_42_c [1:0] $end
$var wire 32 ? MUX32_42_i0 [31:0] $end
$var wire 32 @ MUX32_42_i1 [31:0] $end
$var wire 32 A MUX32_42_i2 [31:0] $end
$var wire 32 B MUX32_42_i3 [31:0] $end
$var wire 1 C MUX5_1_c $end
$var wire 5 D MUX5_1_i0 [4:0] $end
$var wire 5 E MUX5_1_i1 [4:0] $end
$var wire 1 F PC_W $end
$var wire 32 G PC_in [31:0] $end
$var wire 5 H RF_R_Reg1 [4:0] $end
$var wire 5 I RF_R_Reg2 [4:0] $end
$var wire 1 J RF_W $end
$var wire 5 K RF_W_Reg [4:0] $end
$var wire 32 L RF_W_data [31:0] $end
$var wire 26 M SHL26_in [25:0] $end
$var wire 32 N SHL32_in [31:0] $end
$var wire 16 O Sig16 [15:0] $end
$var wire 1 ! clk $end
$var wire 1 " reset $end
$var wire 32 P Sig32 [31:0] $end
$var wire 5 Q Shamt [4:0] $end
$var wire 32 R SHL32_out [31:0] $end
$var wire 28 S SHL26_out [27:0] $end
$var wire 5 T Rt [4:0] $end
$var wire 5 U Rs [4:0] $end
$var wire 1 V RegWr $end
$var wire 1 W RegDst $end
$var wire 5 X Rd [4:0] $end
$var wire 32 Y RF_R_data2 [31:0] $end
$var wire 32 Z RF_R_data1 [31:0] $end
$var wire 32 [ PC_out [31:0] $end
$var wire 1 \ PCWrCond $end
$var wire 1 ] PCWr $end
$var wire 2 ^ PCSrc [1:0] $end
$var wire 6 _ OP_Code [5:0] $end
$var wire 1 ` MemtoReg $end
$var wire 1 a MemWr $end
$var wire 1 b MemRd $end
$var wire 5 c MUX5_1_out [4:0] $end
$var wire 32 d MUX32_42_out [31:0] $end
$var wire 32 e MUX32_41_out [31:0] $end
$var wire 32 f MUX32_41_i2 [31:0] $end
$var wire 32 g MUX32_23_out [31:0] $end
$var wire 32 h MUX32_22_out [31:0] $end
$var wire 32 i MUX32_21_out [31:0] $end
$var wire 32 j MDR_out [31:0] $end
$var wire 1 k IorD $end
$var wire 16 l Imm16 [15:0] $end
$var wire 1 m IRWr $end
$var wire 6 n Func [5:0] $end
$var wire 32 o DM_R_data [31:0] $end
$var wire 32 p B_out [31:0] $end
$var wire 26 q Addr26 [25:0] $end
$var wire 32 r A_out [31:0] $end
$var wire 1 s ALU_z $end
$var wire 1 t ALU_o $end
$var wire 32 u ALU_c [31:0] $end
$var wire 2 v ALUSrcB [1:0] $end
$var wire 1 w ALUSrcA $end
$var wire 32 x ALUOut_out [31:0] $end
$var wire 2 y ALUOp [1:0] $end
$var wire 3 z ALUCtrl [2:0] $end
$scope module ALUOut $end
$var wire 32 { D [31:0] $end
$var wire 1 ! clk $end
$var reg 32 | Q [31:0] $end
$upscope $end
$scope module alu $end
$var wire 32 } a [31:0] $end
$var wire 32 ~ b [31:0] $end
$var wire 3 !" mod [2:0] $end
$var reg 32 "" out [31:0] $end
$var reg 1 t overflow $end
$var reg 1 s zero $end
$upscope $end
$scope module alucu $end
$var wire 6 #" funct [5:0] $end
$var wire 2 $" ALUOp [1:0] $end
$var reg 3 %" ALUCtrl [2:0] $end
$upscope $end
$scope module dm $end
$var wire 32 &" Addr [31:0] $end
$var wire 1 , R $end
$var wire 1 - W $end
$var wire 32 '" W_data [31:0] $end
$var wire 1 k IorD $end
$var reg 32 (" R_data [31:0] $end
$var integer 32 )" fd1 [31:0] $end
$var integer 32 *" i [31:0] $end
$upscope $end
$scope module ir $end
$var wire 32 +" D [31:0] $end
$var wire 1 ! clk $end
$var wire 1 m W $end
$var reg 26 ," Addr26 [25:0] $end
$var reg 6 -" Func [5:0] $end
$var reg 16 ." Imm16 [15:0] $end
$var reg 32 /" Inst [31:0] $end
$var reg 6 0" OP_Code [5:0] $end
$var reg 5 1" Rd [4:0] $end
$var reg 5 2" Rs [4:0] $end
$var reg 5 3" Rt [4:0] $end
$var reg 5 4" Shamt [4:0] $end
$upscope $end
$scope module mcu $end
$var wire 6 5" OP_Code [5:0] $end
$var wire 1 ! clk $end
$var wire 3 6" TransIn [2:0] $end
$var wire 1 V RegWr $end
$var wire 1 W RegDst $end
$var wire 4 7" ROM2Out [3:0] $end
$var wire 4 8" ROM1Out [3:0] $end
$var wire 1 \ PCWrCond $end
$var wire 1 ] PCWr $end
$var wire 2 9" PCSrc [1:0] $end
$var wire 15 :" MicroIR [14:0] $end
$var wire 1 ` MemtoReg $end
$var wire 1 a MemWr $end
$var wire 1 b MemRd $end
$var wire 1 k IorD $end
$var wire 1 m IRWr $end
$var wire 2 ;" Caddr [1:0] $end
$var wire 4 <" AddrOut [3:0] $end
$var wire 4 =" AddrIn [3:0] $end
$var wire 4 >" AddOut [3:0] $end
$var wire 2 ?" ALUSrcB [1:0] $end
$var wire 1 w ALUSrcA $end
$var wire 2 @" ALUOp [1:0] $end
$scope module add4 $end
$var wire 4 A" b [3:0] $end
$var wire 4 B" c [3:0] $end
$var wire 4 C" a [3:0] $end
$upscope $end
$scope module cmar $end
$var wire 1 ! clk $end
$var wire 4 D" AddrIn [3:0] $end
$var reg 4 E" AddrOut [3:0] $end
$upscope $end
$scope module muir $end
$var wire 3 F" TransIn [2:0] $end
$var wire 1 V RegWr $end
$var wire 1 \ PCWrCond $end
$var wire 1 ] PCWr $end
$var wire 15 G" MicroIR [14:0] $end
$var wire 1 b MemRd $end
$var wire 1 k IorD $end
$var wire 2 H" Caddr [1:0] $end
$var wire 2 I" ALUSrcB [1:0] $end
$var wire 1 w ALUSrcA $end
$var wire 2 J" ALUOp [1:0] $end
$upscope $end
$scope module mux4 $end
$var wire 2 K" Ctrl [1:0] $end
$var wire 4 L" i0 [3:0] $end
$var wire 4 M" i3 [3:0] $end
$var wire 4 N" out [3:0] $end
$var wire 4 O" i2 [3:0] $end
$var wire 4 P" i1 [3:0] $end
$upscope $end
$scope module rom $end
$var wire 4 Q" AddrIn [3:0] $end
$var reg 15 R" MicroIR [14:0] $end
$upscope $end
$scope module rom1 $end
$var wire 6 S" OP_Code [5:0] $end
$var reg 4 T" AddrIn [3:0] $end
$upscope $end
$scope module rom2 $end
$var wire 6 U" OP_Code [5:0] $end
$var reg 4 V" AddrIn [3:0] $end
$upscope $end
$scope module trans $end
$var wire 3 W" TransIn [2:0] $end
$var reg 1 m IRWr $end
$var reg 1 a MemWr $end
$var reg 1 ` MemtoReg $end
$var reg 2 X" PCSrc [1:0] $end
$var reg 1 W RegDst $end
$upscope $end
$upscope $end
$scope module mdr $end
$var wire 32 Y" D [31:0] $end
$var wire 1 ! clk $end
$var reg 32 Z" Q [31:0] $end
$upscope $end
$scope module mux32_21 $end
$var wire 1 1 Ctrl $end
$var wire 32 [" i0 [31:0] $end
$var wire 32 \" i1 [31:0] $end
$var wire 32 ]" out [31:0] $end
$upscope $end
$scope module mux32_22 $end
$var wire 1 4 Ctrl $end
$var wire 32 ^" i0 [31:0] $end
$var wire 32 _" i1 [31:0] $end
$var wire 32 `" out [31:0] $end
$upscope $end
$scope module mux32_23 $end
$var wire 1 7 Ctrl $end
$var wire 32 a" i0 [31:0] $end
$var wire 32 b" i1 [31:0] $end
$var wire 32 c" out [31:0] $end
$upscope $end
$scope module mux32_41 $end
$var wire 2 d" Ctrl [1:0] $end
$var wire 32 e" i0 [31:0] $end
$var wire 32 f" i1 [31:0] $end
$var wire 32 g" i2 [31:0] $end
$var wire 32 h" i3 [31:0] $end
$var wire 32 i" out [31:0] $end
$upscope $end
$scope module mux32_42 $end
$var wire 2 j" Ctrl [1:0] $end
$var wire 32 k" i0 [31:0] $end
$var wire 32 l" i1 [31:0] $end
$var wire 32 m" i2 [31:0] $end
$var wire 32 n" i3 [31:0] $end
$var wire 32 o" out [31:0] $end
$upscope $end
$scope module mux5 $end
$var wire 1 C Ctrl $end
$var wire 5 p" i0 [4:0] $end
$var wire 5 q" i1 [4:0] $end
$var wire 5 r" out [4:0] $end
$upscope $end
$scope module pc $end
$var wire 1 F W $end
$var wire 32 s" addrin [31:0] $end
$var wire 1 ! clk $end
$var wire 1 " reset $end
$var reg 32 t" TmpAddr [31:0] $end
$var reg 32 u" addrout [31:0] $end
$upscope $end
$scope module regA $end
$var wire 32 v" D [31:0] $end
$var wire 1 ! clk $end
$var reg 32 w" Q [31:0] $end
$upscope $end
$scope module regB $end
$var wire 32 x" D [31:0] $end
$var wire 1 ! clk $end
$var reg 32 y" Q [31:0] $end
$upscope $end
$scope module rf $end
$var wire 5 z" R_Reg1 [4:0] $end
$var wire 5 {" R_Reg2 [4:0] $end
$var wire 1 J W $end
$var wire 5 |" W_Reg [4:0] $end
$var wire 32 }" W_data [31:0] $end
$var wire 1 ! clk $end
$var wire 32 ~" R_data2 [31:0] $end
$var wire 32 !# R_data1 [31:0] $end
$var integer 32 "# fd1 [31:0] $end
$var integer 32 ## i [31:0] $end
$upscope $end
$scope module shl2_26 $end
$var wire 26 $# in [25:0] $end
$var wire 28 %# out [27:0] $end
$upscope $end
$scope module shl2_32 $end
$var wire 32 &# in [31:0] $end
$var wire 32 '# out [31:0] $end
$upscope $end
$scope module sigext $end
$var wire 16 (# in [15:0] $end
$var wire 32 )# out [31:0] $end
$upscope $end
$upscope $end
$upscope $end
$enddefinitions $end
#0
$dumpvars
b0xxxxxxxxxxxxxxxx )#
bx (#
b0xxxxxxxxxxxxxxxx00 '#
b0xxxxxxxxxxxxxxxx &#
bx00 %#
bx $#
b100000 ##
b10 "#
bx !#
bx ~"
bx }"
bx |"
bx {"
bx z"
bx y"
bx x"
bx w"
bx v"
b0 u"
b100 t"
b100 s"
bx r"
bx q"
bx p"
b100 o"
b0xxxxxxxxxxxxxxxx00 n"
b0xxxxxxxxxxxxxxxx m"
b100 l"
bx k"
b1 j"
b100 i"
bz h"
b0xxxxxxxxxxxxxxxxxxxxxxxxxx00 g"
bx f"
b100 e"
b0 d"
bx c"
bx b"
bx a"
b0 `"
bx _"
b0 ^"
b0 ]"
bx \"
b0 ["
bx Z"
b10001000000100000 Y"
b0 X"
b110 W"
bx V"
bx U"
bx T"
bx S"
b100111000010011 R"
b0 Q"
bx P"
bx O"
b1 N"
b1 M"
b0 L"
b11 K"
b0 J"
b1 I"
b11 H"
b100111000010011 G"
b110 F"
b0 E"
b1 D"
b0 C"
b1 B"
b1 A"
b0 @"
b1 ?"
b1 >"
b1 ="
b0 <"
b11 ;"
b100111000010011 :"
b0 9"
bx 8"
bx 7"
b110 6"
bx 5"
bx 4"
bx 3"
bx 2"
bx 1"
bx 0"
b10001000000100000 /"
bx ."
bx -"
bx ,"
b10001000000100000 +"
bx *"
bx )"
b10001000000100000 ("
bx '"
b0 &"
b100 %"
b0 $"
bx #"
b100 ""
b100 !"
b100 ~
b0 }
bx |
b100 {
b100 z
b0 y
bx x
0w
b1 v
b100 u
0t
0s
bx r
bx q
bx p
b10001000000100000 o
bx n
1m
bx l
0k
bx j
b0 i
b0 h
bx g
b0xxxxxxxxxxxxxxxxxxxxxxxxxx00 f
b100 e
b100 d
bx c
1b
0a
0`
bx _
b0 ^
1]
0\
b0 [
bx Z
bx Y
bx X
0W
0V
bx U
bx T
bx00 S
b0xxxxxxxxxxxxxxxx00 R
bx Q
b0xxxxxxxxxxxxxxxx P
bx O
b0xxxxxxxxxxxxxxxx N
bx M
bx L
bx K
0J
bx I
bx H
b100 G
1F
bx E
bx D
0C
b0xxxxxxxxxxxxxxxx00 B
b0xxxxxxxxxxxxxxxx A
b100 @
bx ?
b1 >
bz =
bx <
b100 ;
b0 :
bx 9
bx 8
07
bx 6
b0 5
04
bx 3
b0 2
01
b10001000000100000 0
b10001000000100000 /
bx .
0-
1,
b0 +
bx *
bx )
b100 (
b100 '
b0 &
b100 %
bx $
bx #
1"
0!
$end
#5000
0"
#10000
b11000100000000000100010 0
b11000100000000000100010 Y"
b11000100000000000100010 /
b11000100000000000100010 +"
b11000100000000000100010 o
b11000100000000000100010 ("
b100000010000000 '
b100000010000000 ~
b100000010000000 d
b100000010000000 o"
b110 ="
b110 D"
b110 N"
0m
0F
b100000010000100 G
b100000010000100 s"
b100000010000100 e
b100000010000100 i"
b1 ;"
b1 H"
b1 K"
b11 >
b11 j"
b11 v
b11 ?"
b11 I"
b0 6"
b0 F"
b0 W"
0,
0b
0]
b100000010000100 %
b100000010000100 {
b100000010000100 ;
b100000010000100 e"
b100000010000100 u
b100000010000100 ""
b100000010000000 B
b100000010000000 n"
b100000010000000 R
b100000010000000 '#
b100 (
b100 !"
b100 z
b100 %"
b10 *
b10 x"
b10 Y
b10 ~"
b1 K
b1 |"
b1 c
b1 r"
b1 )
b1 v"
b1 Z
b1 !#
b0 7"
b0 O"
b0 V"
b110 8"
b110 P"
b110 T"
b110001 :"
b110001 G"
b110001 R"
b100 +
b100 &"
b100 h
b100 `"
b100 &
b100 }
b100 i
b100 ]"
b100 L
b100 }"
b100 g
b100 c"
b1000100000010000000 f
b1000100000010000000 g"
b1000100000010000000 S
b1000100000010000000 %#
b10001000000100000 M
b10001000000100000 $#
b10001000000100000 q
b10001000000100000 ,"
b1000000100000 N
b1000000100000 &#
b1000000100000 A
b1000000100000 m"
b1000000100000 P
b1000000100000 )#
b1000000100000 O
b1000000100000 (#
b1000000100000 l
b1000000100000 ."
b100000 $
b100000 #"
b100000 n
b100000 -"
b0 Q
b0 4"
b10 E
b10 q"
b10 X
b10 1"
b1 I
b1 {"
b1 D
b1 p"
b1 T
b1 3"
b0 H
b0 z"
b0 U
b0 2"
b0 _
b0 0"
b0 5"
b0 S"
b0 U"
b10 >"
b10 B"
b10 M"
b1 <"
b1 C"
b1 E"
b1 Q"
b100 5
b100 ^"
b100 2
b100 ["
b100 [
b100 u"
b100 <
b100 f"
b100 8
b100 a"
b100 6
b100 _"
b100 x
b100 |
b10001000000100000 9
b10001000000100000 b"
b10001000000100000 j
b10001000000100000 Z"
1!
b0 #
#15000
b100000 ##
0!
b1 #
#20000
b11 G
b11 s"
b11 e
b11 i"
b111 ="
b111 D"
b111 N"
b11 %
b11 {
b11 ;
b11 e"
b11 u
b11 ""
b1 &
b1 }
b1 i
b1 ]"
b10 '
b10 ~
b10 d
b10 o"
b100 (
b100 !"
b100 z
b100 %"
b11 ;"
b11 H"
b11 K"
11
1w
b0 >
b0 j"
b0 v
b0 ?"
b0 I"
b10 y
b10 $"
b10 @"
b10 J"
b100000010000100 L
b100000010000100 }"
b100000010000100 g
b100000010000100 c"
b10001011 :"
b10001011 G"
b10001011 R"
b11000100000000000100010 9
b11000100000000000100010 b"
b11000100000000000100010 j
b11000100000000000100010 Z"
b100000010000100 <
b100000010000100 f"
b100000010000100 8
b100000010000100 a"
b100000010000100 6
b100000010000100 _"
b100000010000100 x
b100000010000100 |
b10 ?
b10 k"
b10 .
b10 '"
b10 p
b10 y"
b1 3
b1 \"
b1 r
b1 w"
b111 >"
b111 B"
b111 M"
b110 <"
b110 C"
b110 E"
b110 Q"
1!
b10 #
#25000
b100000 ##
0!
b11 #
#30000
b110 G
b110 s"
b110 e
b110 i"
b110 %
b110 {
b110 ;
b110 e"
b110 u
b110 ""
b10 K
b10 |"
b10 c
b10 r"
b0 ="
b0 D"
b0 N"
b100 &
b100 }
b100 i
b100 ]"
b100 (
b100 !"
b100 z
b100 %"
1C
1W
b0 ;"
b0 H"
b0 K"
1J
1V
01
0w
b0 y
b0 $"
b0 @"
b0 J"
b1 6"
b1 F"
b1 W"
b100000100 :"
b100000100 G"
b100000100 R"
b11 L
b11 }"
b11 g
b11 c"
b1000 >"
b1000 B"
b1000 M"
b111 <"
b111 C"
b111 E"
b111 Q"
b11 <
b11 f"
b11 8
b11 a"
b11 6
b11 _"
b11 x
b11 |
1!
b100 #
#35000
b100000 ##
0!
b101 #
#40000
b11000100000000000100010 /"
b1000 G
b1000 s"
b1000 e
b1000 i"
b1000 %
b1000 {
b1000 ;
b1000 e"
b1000 u
b1000 ""
b1 K
b1 |"
b1 c
b1 r"
b1 ="
b1 D"
b1 N"
b100 '
b100 ~
b100 d
b100 o"
1m
0C
0W
1F
b11 ;"
b11 H"
b11 K"
0J
0V
b1 >
b1 j"
b1 v
b1 ?"
b1 I"
b110 6"
b110 F"
b110 W"
1,
1b
1]
b110 L
b110 }"
b110 g
b110 c"
b100111000010011 :"
b100111000010011 G"
b100111000010011 R"
b110 <
b110 f"
b110 8
b110 a"
b110 6
b110 _"
b110 x
b110 |
b1 >"
b1 B"
b1 M"
b0 <"
b0 C"
b0 E"
b0 Q"
1!
b110 #
#45000
b1000 t"
b100000 ##
0!
b111 #
#50000
b1000000001000000100100 0
b1000000001000000100100 Y"
b1000000001000000100100 /
b1000000001000000100100 +"
b1000000001000000100100 o
b1000000001000000100100 ("
b10001000 '
b10001000 ~
b10001000 d
b10001000 o"
b110 ="
b110 D"
b110 N"
0m
0F
b10010000 G
b10010000 s"
b10010000 e
b10010000 i"
b1 ;"
b1 H"
b1 K"
b11 >
b11 j"
b11 v
b11 ?"
b11 I"
b0 6"
b0 F"
b0 W"
0,
0b
0]
b10010000 %
b10010000 {
b10010000 ;
b10010000 e"
b10010000 u
b10010000 ""
b10001000 B
b10001000 n"
b10001000 R
b10001000 '#
b100 (
b100 !"
b100 z
b100 %"
b11 *
b11 x"
b11 Y
b11 ~"
b10 K
b10 |"
b10 c
b10 r"
b111 )
b111 v"
b111 Z
b111 !#
b110001 :"
b110001 G"
b110001 R"
b1000 +
b1000 &"
b1000 h
b1000 `"
b1000 &
b1000 }
b1000 i
b1000 ]"
b1000 L
b1000 }"
b1000 g
b1000 c"
b1100010000000000010001000 f
b1100010000000000010001000 g"
b1100010000000000010001000 S
b1100010000000000010001000 %#
b11000100000000000100010 M
b11000100000000000100010 $#
b11000100000000000100010 q
b11000100000000000100010 ,"
b100010 N
b100010 &#
b100010 A
b100010 m"
b100010 P
b100010 )#
b100010 O
b100010 (#
b100010 l
b100010 ."
b100010 $
b100010 #"
b100010 n
b100010 -"
b0 E
b0 q"
b0 X
b0 1"
b10 I
b10 {"
b10 D
b10 p"
b10 T
b10 3"
b11 H
b11 z"
b11 U
b11 2"
b10 >"
b10 B"
b10 M"
b1 <"
b1 C"
b1 E"
b1 Q"
b1000 5
b1000 ^"
b1000 2
b1000 ["
b1000 [
b1000 u"
b1000 <
b1000 f"
b1000 8
b1000 a"
b1000 6
b1000 _"
b1000 x
b1000 |
1!
b1000 #
#55000
b100000 ##
0!
b1001 #
#60000
b100 G
b100 s"
b100 e
b100 i"
b111 ="
b111 D"
b111 N"
b100 %
b100 {
b100 ;
b100 e"
b100 u
b100 ""
b111 &
b111 }
b111 i
b111 ]"
b11 '
b11 ~
b11 d
b11 o"
b110 (
b110 !"
b110 z
b110 %"
b11 ;"
b11 H"
b11 K"
11
1w
b0 >
b0 j"
b0 v
b0 ?"
b0 I"
b10 y
b10 $"
b10 @"
b10 J"
b10010000 L
b10010000 }"
b10010000 g
b10010000 c"
b10001011 :"
b10001011 G"
b10001011 R"
b1000000001000000100100 9
b1000000001000000100100 b"
b1000000001000000100100 j
b1000000001000000100100 Z"
b10010000 <
b10010000 f"
b10010000 8
b10010000 a"
b10010000 6
b10010000 _"
b10010000 x
b10010000 |
b11 ?
b11 k"
b11 .
b11 '"
b11 p
b11 y"
b111 3
b111 \"
b111 r
b111 w"
b111 >"
b111 B"
b111 M"
b110 <"
b110 C"
b110 E"
b110 Q"
1!
b1010 #
#65000
b100000 ##
0!
b1011 #
#70000
b1011 G
b1011 s"
b1011 e
b1011 i"
b1011 %
b1011 {
b1011 ;
b1011 e"
b1011 u
b1011 ""
b0 K
b0 |"
b0 c
b0 r"
b0 ="
b0 D"
b0 N"
b1000 &
b1000 }
b1000 i
b1000 ]"
b100 (
b100 !"
b100 z
b100 %"
1C
1W
b0 ;"
b0 H"
b0 K"
1J
1V
01
0w
b0 y
b0 $"
b0 @"
b0 J"
b1 6"
b1 F"
b1 W"
b100000100 :"
b100000100 G"
b100000100 R"
b100 L
b100 }"
b100 g
b100 c"
b1000 >"
b1000 B"
b1000 M"
b111 <"
b111 C"
b111 E"
b111 Q"
b100 <
b100 f"
b100 8
b100 a"
b100 6
b100 _"
b100 x
b100 |
1!
b1100 #
#75000
b100000 ##
0!
b1101 #
#80000
b1000000001000000100100 /"
b1100 G
b1100 s"
b1100 e
b1100 i"
b1100 %
b1100 {
b1100 ;
b1100 e"
b1100 u
b1100 ""
b10 K
b10 |"
b10 c
b10 r"
b1 ="
b1 D"
b1 N"
b100 '
b100 ~
b100 d
b100 o"
1m
0C
0W
1F
b11 ;"
b11 H"
b11 K"
0J
0V
b1 >
b1 j"
b1 v
b1 ?"
b1 I"
b110 6"
b110 F"
b110 W"
1,
1b
1]
b1011 L
b1011 }"
b1011 g
b1011 c"
b100111000010011 :"
b100111000010011 G"
b100111000010011 R"
b1011 <
b1011 f"
b1011 8
b1011 a"
b1011 6
b1011 _"
b1011 x
b1011 |
b1 >"
b1 B"
b1 M"
b0 <"
b0 C"
b0 E"
b0 Q"
1!
b1110 #
#85000
b1100 t"
b100000 ##
0!
b1111 #
#90000
b10000100000100101 0
b10000100000100101 Y"
b10000100000100101 /
b10000100000100101 +"
b10000100000100101 o
b10000100000100101 ("
b100000010010000 '
b100000010010000 ~
b100000010010000 d
b100000010010000 o"
b110 ="
b110 D"
b110 N"
0m
0F
b100000010011100 G
b100000010011100 s"
b100000010011100 e
b100000010011100 i"
b1 ;"
b1 H"
b1 K"
b11 >
b11 j"
b11 v
b11 ?"
b11 I"
b0 6"
b0 F"
b0 W"
0,
0b
0]
b100000010011100 %
b100000010011100 {
b100000010011100 ;
b100000010011100 e"
b100000010011100 u
b100000010011100 ""
b100000010010000 B
b100000010010000 n"
b100000010010000 R
b100000010010000 '#
b100 (
b100 !"
b100 z
b100 %"
b100 *
b100 x"
b100 Y
b100 ~"
b0 K
b0 |"
b0 c
b0 r"
b10 )
b10 v"
b10 Z
b10 !#
b110001 :"
b110001 G"
b110001 R"
b1100 +
b1100 &"
b1100 h
b1100 `"
b1100 &
b1100 }
b1100 i
b1100 ]"
b1100 L
b1100 }"
b1100 g
b1100 c"
b100000000100000010010000 f
b100000000100000010010000 g"
b100000000100000010010000 S
b100000000100000010010000 %#
b1000000001000000100100 M
b1000000001000000100100 $#
b1000000001000000100100 q
b1000000001000000100100 ,"
b1000000100100 N
b1000000100100 &#
b1000000100100 A
b1000000100100 m"
b1000000100100 P
b1000000100100 )#
b1000000100100 O
b1000000100100 (#
b1000000100100 l
b1000000100100 ."
b100100 $
b100100 #"
b100100 n
b100100 -"
b10 E
b10 q"
b10 X
b10 1"
b0 I
b0 {"
b0 D
b0 p"
b0 T
b0 3"
b1 H
b1 z"
b1 U
b1 2"
b10 >"
b10 B"
b10 M"
b1 <"
b1 C"
b1 E"
b1 Q"
b1100 5
b1100 ^"
b1100 2
b1100 ["
b1100 [
b1100 u"
b1100 <
b1100 f"
b1100 8
b1100 a"
b1100 6
b1100 _"
b1100 x
b1100 |
1!
b10000 #
#95000
b100000 ##
0!
b10001 #
#100000
b0 G
b0 s"
b0 e
b0 i"
b111 ="
b111 D"
b111 N"
1s
b0 %
b0 {
b0 ;
b0 e"
b0 u
b0 ""
b10 &
b10 }
b10 i
b10 ]"
b100 '
b100 ~
b100 d
b100 o"
b0 (
b0 !"
b0 z
b0 %"
b11 ;"
b11 H"
b11 K"
11
1w
b0 >
b0 j"
b0 v
b0 ?"
b0 I"
b10 y
b10 $"
b10 @"
b10 J"
b100000010011100 L
b100000010011100 }"
b100000010011100 g
b100000010011100 c"
b10001011 :"
b10001011 G"
b10001011 R"
b10000100000100101 9
b10000100000100101 b"
b10000100000100101 j
b10000100000100101 Z"
b100000010011100 <
b100000010011100 f"
b100000010011100 8
b100000010011100 a"
b100000010011100 6
b100000010011100 _"
b100000010011100 x
b100000010011100 |
b100 ?
b100 k"
b100 .
b100 '"
b100 p
b100 y"
b10 3
b10 \"
b10 r
b10 w"
b111 >"
b111 B"
b111 M"
b110 <"
b110 C"
b110 E"
b110 Q"
1!
b10010 #
#105000
b100000 ##
0!
b10011 #
#110000
b10000 G
b10000 s"
b10000 e
b10000 i"
0s
b10000 %
b10000 {
b10000 ;
b10000 e"
b10000 u
b10000 ""
b10 K
b10 |"
b10 c
b10 r"
b0 ="
b0 D"
b0 N"
b1100 &
b1100 }
b1100 i
b1100 ]"
b100 (
b100 !"
b100 z
b100 %"
1C
1W
b0 ;"
b0 H"
b0 K"
1J
1V
01
0w
b0 y
b0 $"
b0 @"
b0 J"
b1 6"
b1 F"
b1 W"
b100000100 :"
b100000100 G"
b100000100 R"
b0 L
b0 }"
b0 g
b0 c"
b1000 >"
b1000 B"
b1000 M"
b111 <"
b111 C"
b111 E"
b111 Q"
b0 <
b0 f"
b0 8
b0 a"
b0 6
b0 _"
b0 x
b0 |
1!
b10100 #
#115000
b100000 ##
0!
b10101 #
#120000
b10000100000100101 /"
b0 K
b0 |"
b0 c
b0 r"
b1 ="
b1 D"
b1 N"
1m
0C
0W
1F
b11 ;"
b11 H"
b11 K"
0J
0V
b1 >
b1 j"
b1 v
b1 ?"
b1 I"
b110 6"
b110 F"
b110 W"
1,
1b
1]
b10000 L
b10000 }"
b10000 g
b10000 c"
b100111000010011 :"
b100111000010011 G"
b100111000010011 R"
b10000 <
b10000 f"
b10000 8
b10000 a"
b10000 6
b10000 _"
b10000 x
b10000 |
b1 >"
b1 B"
b1 M"
b0 <"
b0 C"
b0 E"
b0 Q"
1!
b10110 #
#125000
b10000 t"
b100000 ##
0!
b10111 #
#130000
b10001100010000000000000000000010 0
b10001100010000000000000000000010 Y"
b10001100010000000000000000000010 /
b10001100010000000000000000000010 +"
b10001100010000000000000000000010 o
b10001100010000000000000000000010 ("
b10000010010100 '
b10000010010100 ~
b10000010010100 d
b10000010010100 o"
b110 ="
b110 D"
b110 N"
0m
0F
b10000010100100 G
b10000010100100 s"
b10000010100100 e
b10000010100100 i"
b1 ;"
b1 H"
b1 K"
b11 >
b11 j"
b11 v
b11 ?"
b11 I"
b0 6"
b0 F"
b0 W"
0,
0b
0]
b10000010100100 %
b10000010100100 {
b10000010100100 ;
b10000010100100 e"
b10000010100100 u
b10000010100100 ""
b10000010010100 B
b10000010010100 n"
b10000010010100 R
b10000010010100 '#
b100 (
b100 !"
b100 z
b100 %"
b10 *
b10 x"
b10 Y
b10 ~"
b1 K
b1 |"
b1 c
b1 r"
b100 )
b100 v"
b100 Z
b100 !#
b110001 :"
b110001 G"
b110001 R"
b10000 +
b10000 &"
b10000 h
b10000 `"
b10000 &
b10000 }
b10000 i
b10000 ]"
b1000010000010010100 f
b1000010000010010100 g"
b1000010000010010100 S
b1000010000010010100 %#
b10000100000100101 M
b10000100000100101 $#
b10000100000100101 q
b10000100000100101 ,"
b100000100101 N
b100000100101 &#
b100000100101 A
b100000100101 m"
b100000100101 P
b100000100101 )#
b100000100101 O
b100000100101 (#
b100000100101 l
b100000100101 ."
b100101 $
b100101 #"
b100101 n
b100101 -"
b1 E
b1 q"
b1 X
b1 1"
b1 I
b1 {"
b1 D
b1 p"
b1 T
b1 3"
b0 H
b0 z"
b0 U
b0 2"
b10 >"
b10 B"
b10 M"
b1 <"
b1 C"
b1 E"
b1 Q"
b10000 5
b10000 ^"
b10000 2
b10000 ["
b10000 [
b10000 u"
1!
b11000 #
#135000
b100000 ##
0!
b11001 #
