Multi_Cycle_CombinationLogic/build/mc_wave.vcd
$date
	Tue Jan 04 21:39:57 2022
$end
$version
	Icarus Verilog
$end
$timescale
	1ps
$end
$scope module MC_CPU_tb $end
$var reg 1 ! clk $end
$var reg 1 " reset $end
$var integer 32 # i [31:0] $end
$scope module mc_cpu $end
$var wire 6 $ ALUCU_funct [5:0] $end
$var wire 32 % ALUOut_in [31:0] $end
$var wire 32 & ALU_a [31:0] $end
$var wire 32 ' ALU_b [31:0] $end
$var wire 3 ( ALU_mod [2:0] $end
$var wire 32 ) A_in [31:0] $end
$var wire 32 * B_in [31:0] $end
$var wire 32 + DM_Addr [31:0] $end
$var wire 1 , DM_R $end
$var wire 1 - DM_W $end
$var wire 32 . DM_W_data [31:0] $end
$var wire 32 / Inst [31:0] $end
$var wire 32 0 MDR_in [31:0] $end
$var wire 1 1 MUX32_21_c $end
$var wire 32 2 MUX32_21_i0 [31:0] $end
$var wire 32 3 MUX32_21_i1 [31:0] $end
$var wire 1 4 MUX32_22_c $end
$var wire 32 5 MUX32_22_i0 [31:0] $end
$var wire 32 6 MUX32_22_i1 [31:0] $end
$var wire 1 7 MUX32_23_c $end
$var wire 32 8 MUX32_23_i0 [31:0] $end
$var wire 32 9 MUX32_23_i1 [31:0] $end
$var wire 2 : MUX32_41_c [1:0] $end
$var wire 32 ; MUX32_41_i0 [31:0] $end
$var wire 32 < MUX32_41_i1 [31:0] $end
$var wire 32 = MUX32_41_i3 [31:0] $end
$var wire 2 > MUX32_42_c [1:0] $end
$var wire 32 ? MUX32_42_i0 [31:0] $end
$var wire 32 @ MUX32_42_i1 [31:0] $end
$var wire 32 A MUX32_42_i2 [31:0] $end
$var wire 32 B MUX32_42_i3 [31:0] $end
$var wire 1 C MUX5_1_c $end
$var wire 5 D MUX5_1_i0 [4:0] $end
$var wire 5 E MUX5_1_i1 [4:0] $end
$var wire 1 F PC_W $end
$var wire 32 G PC_in [31:0] $end
$var wire 5 H RF_R_Reg1 [4:0] $end
$var wire 5 I RF_R_Reg2 [4:0] $end
$var wire 1 J RF_W $end
$var wire 5 K RF_W_Reg [4:0] $end
$var wire 32 L RF_W_data [31:0] $end
$var wire 26 M SHL26_in [25:0] $end
$var wire 32 N SHL32_in [31:0] $end
$var wire 16 O Sig16 [15:0] $end
$var wire 1 ! clk $end
$var wire 1 " reset $end
$var wire 32 P Sig32 [31:0] $end
$var wire 5 Q Shamt [4:0] $end
$var wire 32 R SHL32_out [31:0] $end
$var wire 28 S SHL26_out [27:0] $end
$var wire 4 T S [3:0] $end
$var wire 5 U Rt [4:0] $end
$var wire 5 V Rs [4:0] $end
$var wire 1 W RegWr $end
$var wire 1 X RegDst $end
$var wire 5 Y Rd [4:0] $end
$var wire 32 Z RF_R_data2 [31:0] $end
$var wire 32 [ RF_R_data1 [31:0] $end
$var wire 32 \ PC_out [31:0] $end
$var wire 1 ] PCWrCond $end
$var wire 1 ^ PCWr $end
$var wire 2 _ PCSrc [1:0] $end
$var wire 6 ` OP_Code [5:0] $end
$var wire 4 a NS [3:0] $end
$var wire 1 b MemtoReg $end
$var wire 1 c MemWr $end
$var wire 1 d MemRd $end
$var wire 5 e MUX5_1_out [4:0] $end
$var wire 32 f MUX32_42_out [31:0] $end
$var wire 32 g MUX32_41_out [31:0] $end
$var wire 32 h MUX32_41_i2 [31:0] $end
$var wire 32 i MUX32_23_out [31:0] $end
$var wire 32 j MUX32_22_out [31:0] $end
$var wire 32 k MUX32_21_out [31:0] $end
$var wire 32 l MDR_out [31:0] $end
$var wire 1 m IorD $end
$var wire 16 n Imm16 [15:0] $end
$var wire 1 o IRWr $end
$var wire 6 p Func [5:0] $end
$var wire 32 q DM_R_data [31:0] $end
$var wire 32 r B_out [31:0] $end
$var wire 26 s Addr26 [25:0] $end
$var wire 32 t A_out [31:0] $end
$var wire 1 u ALU_z $end
$var wire 1 v ALU_o $end
$var wire 32 w ALU_c [31:0] $end
$var wire 2 x ALUSrcB [1:0] $end
$var wire 1 y ALUSrcA $end
$var wire 32 z ALUOut_out [31:0] $end
$var wire 2 { ALUOp [1:0] $end
$var wire 3 | ALUCtrl [2:0] $end
$scope module ALUOut $end
$var wire 32 } D [31:0] $end
$var wire 1 ! clk $end
$var reg 32 ~ Q [31:0] $end
$upscope $end
$scope module alu $end
$var wire 32 !" a [31:0] $end
$var wire 32 "" b [31:0] $end
$var wire 3 #" mod [2:0] $end
$var reg 32 $" out [31:0] $end
$var reg 1 v overflow $end
$var reg 1 u zero $end
$upscope $end
$scope module alucu $end
$var wire 6 %" funct [5:0] $end
$var wire 2 &" ALUOp [1:0] $end
$var reg 3 '" ALUCtrl [2:0] $end
$upscope $end
$scope module dm $end
$var wire 32 (" Addr [31:0] $end
$var wire 1 , R $end
$var wire 1 - W $end
$var wire 32 )" W_data [31:0] $end
$var wire 1 m IorD $end
$var reg 32 *" R_data [31:0] $end
$var integer 32 +" fd1 [31:0] $end
$var integer 32 ," i [31:0] $end
$upscope $end
$scope module ir $end
$var wire 32 -" D [31:0] $end
$var wire 1 ! clk $end
$var wire 1 o W $end
$var reg 26 ." Addr26 [25:0] $end
$var reg 6 /" Func [5:0] $end
$var reg 16 0" Imm16 [15:0] $end
$var reg 32 1" Inst [31:0] $end
$var reg 6 2" OP_Code [5:0] $end
$var reg 5 3" Rd [4:0] $end
$var reg 5 4" Rs [4:0] $end
$var reg 5 5" Rt [4:0] $end
$var reg 5 6" Shamt [4:0] $end
$upscope $end
$scope module mcu $end
$var wire 1 y ALUSrcA $end
$var wire 1 m IorD $end
$var wire 1 d MemRd $end
$var wire 6 7" OP_Code [5:0] $end
$var wire 1 ^ PCWr $end
$var wire 1 W RegWr $end
$var wire 17 8" Tmp [16:0] $end
$var wire 4 9" S [3:0] $end
$var wire 1 X RegDst $end
$var wire 1 ] PCWrCond $end
$var wire 2 :" PCSrc [1:0] $end
$var wire 4 ;" NS [3:0] $end
$var wire 1 b MemtoReg $end
$var wire 1 c MemWr $end
$var wire 1 o IRWr $end
$var wire 2 <" ALUSrcB [1:0] $end
$var wire 2 =" ALUOp [1:0] $end
$upscope $end
$scope module mdr $end
$var wire 32 >" D [31:0] $end
$var wire 1 ! clk $end
$var reg 32 ?" Q [31:0] $end
$upscope $end
$scope module mux32_21 $end
$var wire 1 1 Ctrl $end
$var wire 32 @" i0 [31:0] $end
$var wire 32 A" i1 [31:0] $end
$var wire 32 B" out [31:0] $end
$upscope $end
$scope module mux32_22 $end
$var wire 1 4 Ctrl $end
$var wire 32 C" i0 [31:0] $end
$var wire 32 D" i1 [31:0] $end
$var wire 32 E" out [31:0] $end
$upscope $end
$scope module mux32_23 $end
$var wire 1 7 Ctrl $end
$var wire 32 F" i0 [31:0] $end
$var wire 32 G" i1 [31:0] $end
$var wire 32 H" out [31:0] $end
$upscope $end
$scope module mux32_41 $end
$var wire 2 I" Ctrl [1:0] $end
$var wire 32 J" i0 [31:0] $end
$var wire 32 K" i1 [31:0] $end
$var wire 32 L" i2 [31:0] $end
$var wire 32 M" i3 [31:0] $end
$var wire 32 N" out [31:0] $end
$upscope $end
$scope module mux32_42 $end
$var wire 2 O" Ctrl [1:0] $end
$var wire 32 P" i0 [31:0] $end
$var wire 32 Q" i1 [31:0] $end
$var wire 32 R" i2 [31:0] $end
$var wire 32 S" i3 [31:0] $end
$var wire 32 T" out [31:0] $end
$upscope $end
$scope module mux5 $end
$var wire 1 C Ctrl $end
$var wire 5 U" i0 [4:0] $end
$var wire 5 V" i1 [4:0] $end
$var wire 5 W" out [4:0] $end
$upscope $end
$scope module pc $end
$var wire 1 F W $end
$var wire 32 X" addrin [31:0] $end
$var wire 1 ! clk $end
$var wire 1 " reset $end
$var reg 32 Y" TmpAddr [31:0] $end
$var reg 32 Z" addrout [31:0] $end
$upscope $end
$scope module regA $end
$var wire 32 [" D [31:0] $end
$var wire 1 ! clk $end
$var reg 32 \" Q [31:0] $end
$upscope $end
$scope module regB $end
$var wire 32 ]" D [31:0] $end
$var wire 1 ! clk $end
$var reg 32 ^" Q [31:0] $end
$upscope $end
$scope module rf $end
$var wire 5 _" R_Reg1 [4:0] $end
$var wire 5 `" R_Reg2 [4:0] $end
$var wire 1 J W $end
$var wire 5 a" W_Reg [4:0] $end
$var wire 32 b" W_data [31:0] $end
$var wire 1 ! clk $end
$var wire 32 c" R_data2 [31:0] $end
$var wire 32 d" R_data1 [31:0] $end
$var integer 32 e" fd1 [31:0] $end
$var integer 32 f" i [31:0] $end
$upscope $end
$scope module shl2_26 $end
$var wire 26 g" in [25:0] $end
$var wire 28 h" out [27:0] $end
$upscope $end
$scope module shl2_32 $end
$var wire 32 i" in [31:0] $end
$var wire 32 j" out [31:0] $end
$upscope $end
$scope module sigext $end
$var wire 16 k" in [15:0] $end
$var wire 32 l" out [31:0] $end
$upscope $end
$scope module sr $end
$var wire 4 m" NS [3:0] $end
$var wire 1 ! clk $end
$var reg 4 n" S [3:0] $end
$upscope $end
$upscope $end
$upscope $end
$enddefinitions $end
#0
$dumpvars
b0 n"
b1 m"
b0xxxxxxxxxxxxxxxx l"
bx k"
b0xxxxxxxxxxxxxxxx00 j"
b0xxxxxxxxxxxxxxxx i"
bx00 h"
bx g"
b100000 f"
b10 e"
bx d"
bx c"
bx b"
bx a"
bx `"
bx _"
bx ^"
bx ]"
bx \"
bx ["
b0 Z"
b100 Y"
b100 X"
bx W"
bx V"
bx U"
b100 T"
b0xxxxxxxxxxxxxxxx00 S"
b0xxxxxxxxxxxxxxxx R"
b100 Q"
bx P"
b1 O"
b100 N"
bz M"
b0xxxxxxxxxxxxxxxxxxxxxxxxxx00 L"
bx K"
b100 J"
b0 I"
bx H"
bx G"
bx F"
b0 E"
bx D"
b0 C"
b0 B"
bx A"
b0 @"
bx ?"
b10001000000100000 >"
b0 ="
b1 <"
b1 ;"
b0 :"
b0 9"
b10000000000000000 8"
bx 7"
bx 6"
bx 5"
bx 4"
bx 3"
bx 2"
b10001000000100000 1"
bx 0"
bx /"
bx ."
b10001000000100000 -"
bx ,"
bx +"
b10001000000100000 *"
bx )"
b0 ("
b100 '"
b0 &"
bx %"
b100 $"
b100 #"
b100 ""
b0 !"
bx ~
b100 }
b100 |
b0 {
bx z
0y
b1 x
b100 w
0v
0u
bx t
bx s
bx r
b10001000000100000 q
bx p
1o
bx n
0m
bx l
b0 k
b0 j
bx i
b0xxxxxxxxxxxxxxxxxxxxxxxxxx00 h
b100 g
b100 f
bx e
1d
0c
0b
b1 a
bx `
b0 _
1^
0]
b0 \
bx [
bx Z
bx Y
0X
0W
bx V
bx U
b0 T
bx00 S
b0xxxxxxxxxxxxxxxx00 R
bx Q
b0xxxxxxxxxxxxxxxx P
bx O
b0xxxxxxxxxxxxxxxx N
bx M
bx L
bx K
0J
bx I
bx H
b100 G
1F
bx E
bx D
0C
b0xxxxxxxxxxxxxxxx00 B
b0xxxxxxxxxxxxxxxx A
b100 @
bx ?
b1 >
bz =
bx <
b100 ;
b0 :
bx 9
bx 8
07
bx 6
b0 5
04
bx 3
b0 2
01
b10001000000100000 0
b10001000000100000 /
bx .
0-
1,
b0 +
bx *
bx )
b100 (
b100 '
b0 &
b100 %
bx $
bx #
1"
0!
$end
#5000
0"
#10000
b110 a
b110 ;"
b110 m"
0u
0v
b100000010000100 G
b100000010000100 X"
b100000010000100 g
b100000010000100 N"
0F
b100000010000000 '
b100000010000000 ""
b100000010000000 f
b100000010000000 T"
b100000010000100 %
b100000010000100 }
b100000010000100 ;
b100000010000100 J"
b100000010000100 w
b100000010000100 $"
0^
0,
0d
b11 >
b11 O"
b11 x
b11 <"
b100000010000000 B
b100000010000000 S"
b100000010000000 R
b100000010000000 j"
b100 (
b100 #"
b100 |
b100 '"
b10 *
b10 ]"
b10 Z
b10 c"
b1 K
b1 a"
b1 e
b1 W"
b1 )
b1 ["
b1 [
b1 d"
b100 +
b100 ("
b100 j
b100 E"
b100 &
b100 !"
b100 k
b100 B"
0o
b100 L
b100 b"
b100 i
b100 H"
b1000100000010000000 h
b1000100000010000000 L"
b1000100000010000000 S
b1000100000010000000 h"
b10001000000100000 M
b10001000000100000 g"
b10001000000100000 s
b10001000000100000 ."
b1000000100000 N
b1000000100000 i"
b1000000100000 A
b1000000100000 R"
b1000000100000 P
b1000000100000 l"
b1000000100000 O
b1000000100000 k"
b1000000100000 n
b1000000100000 0"
b100000 $
b100000 %"
b100000 p
b100000 /"
b0 Q
b0 6"
b10 E
b10 V"
b10 Y
b10 3"
b1 I
b1 `"
b1 D
b1 U"
b1 U
b1 5"
b0 H
b0 _"
b0 V
b0 4"
b0 `
b0 2"
b0 7"
b100 5
b100 C"
b100 2
b100 @"
b100 \
b100 Z"
b1000000000010000 8"
b1 T
b1 9"
b1 n"
b100 <
b100 K"
b100 8
b100 F"
b100 6
b100 D"
b100 z
b100 ~
b10001000000100000 9
b10001000000100000 G"
b10001000000100000 l
b10001000000100000 ?"
1!
b0 #
#15000
b100000 f"
0!
b1 #
#20000
b1 &
b1 !"
b1 k
b1 B"
11
1y
b11 G
b11 X"
b11 g
b11 N"
b100 (
b100 #"
b100 |
b100 '"
b11 %
b11 }
b11 ;
b11 J"
b11 w
b11 $"
b111 a
b111 ;"
b111 m"
b10 {
b10 &"
b10 ="
b10 '
b10 ""
b10 f
b10 T"
b0 >
b0 O"
b0 x
b0 <"
b10000000000 8"
b100000010000100 L
b100000010000100 b"
b100000010000100 i
b100000010000100 H"
b100000010000100 <
b100000010000100 K"
b100000010000100 8
b100000010000100 F"
b100000010000100 6
b100000010000100 D"
b100000010000100 z
b100000010000100 ~
b10 ?
b10 P"
b10 .
b10 )"
b10 r
b10 ^"
b1 3
b1 A"
b1 t
b1 \"
b110 T
b110 9"
b110 n"
1!
b10 #
#25000
b100000 f"
0!
b11 #
#30000
b110 G
b110 X"
b110 g
b110 N"
b100 &
b100 !"
b100 k
b100 B"
b0 a
b0 ;"
b0 m"
1J
1W
b10 K
b10 a"
b10 e
b10 W"
b110 %
b110 }
b110 ;
b110 J"
b110 w
b110 $"
01
0y
1C
1X
b100 (
b100 #"
b100 |
b100 '"
b0 {
b0 &"
b0 ="
b1000000000 8"
b11 L
b11 b"
b11 i
b11 H"
b111 T
b111 9"
b111 n"
b11 <
b11 K"
b11 8
b11 F"
b11 6
b11 D"
b11 z
b11 ~
1!
b100 #
#35000
b100000 f"
0!
b101 #
#40000
b11000100000000000100010 1"
b100 &
b100 !"
b100 k
b100 B"
0J
0W
b1 K
b1 a"
b1 e
b1 W"
01
0y
b100 +
b100 ("
b100 j
b100 E"
b1000 G
b1000 X"
b1000 g
b1000 N"
b1 a
b1 ;"
b1 m"
0C
0X
b100 (
b100 #"
b100 |
b100 '"
04
0m
b1000 %
b1000 }
b1000 ;
b1000 J"
b1000 w
b1000 $"
b0 {
b0 &"
b0 ="
07
0b
1F
b11000100000000000100010 0
b11000100000000000100010 >"
b11000100000000000100010 /
b11000100000000000100010 -"
b11000100000000000100010 q
b11000100000000000100010 *"
b100 '
b100 ""
b100 f
b100 T"
1^
1,
1d
b1 >
b1 O"
b1 x
b1 <"
b110 L
b110 b"
b110 i
b110 H"
1o
b110 <
b110 K"
b110 8
b110 F"
b110 6
b110 D"
b110 z
b110 ~
b10000000000000000 8"
b0 T
b0 9"
b0 n"
1!
b110 #
#45000
b1000 Y"
b100000 f"
0!
b111 #
#50000
b110 a
b110 ;"
b110 m"
b10010000 G
b10010000 X"
b10010000 g
b10010000 N"
0F
b10001000 '
b10001000 ""
b10001000 f
b10001000 T"
b10010000 %
b10010000 }
b10010000 ;
b10010000 J"
b10010000 w
b10010000 $"
0^
0,
0d
b11 >
b11 O"
b11 x
b11 <"
b10001000 B
b10001000 S"
b10001000 R
b10001000 j"
b100 (
b100 #"
b100 |
b100 '"
b11 *
b11 ]"
b11 Z
b11 c"
b10 K
b10 a"
b10 e
b10 W"
b111 )
b111 ["
b111 [
b111 d"
b1000 +
b1000 ("
b1000 j
b1000 E"
b1000 &
b1000 !"
b1000 k
b1000 B"
0o
b1000 L
b1000 b"
b1000 i
b1000 H"
b1100010000000000010001000 h
b1100010000000000010001000 L"
b1100010000000000010001000 S
b1100010000000000010001000 h"
b11000100000000000100010 M
b11000100000000000100010 g"
b11000100000000000100010 s
b11000100000000000100010 ."
b100010 N
b100010 i"
b100010 A
b100010 R"
b100010 P
b100010 l"
b100010 O
b100010 k"
b100010 n
b100010 0"
b100010 $
b100010 %"
b100010 p
b100010 /"
b0 E
b0 V"
b0 Y
b0 3"
b10 I
b10 `"
b10 D
b10 U"
b10 U
b10 5"
b11 H
b11 _"
b11 V
b11 4"
b1000 5
b1000 C"
b1000 2
b1000 @"
b1000 \
b1000 Z"
b1000000000010000 8"
b1 T
b1 9"
b1 n"
b1000 <
b1000 K"
b1000 8
b1000 F"
b1000 6
b1000 D"
b1000 z
b1000 ~
b11000100000000000100010 9
b11000100000000000100010 G"
b11000100000000000100010 l
b11000100000000000100010 ?"
1!
b1000 #
#55000
b100000 f"
0!
b1001 #
#60000
b111 &
b111 !"
b111 k
b111 B"
11
1y
b100 G
b100 X"
b100 g
b100 N"
b110 (
b110 #"
b110 |
b110 '"
b100 %
b100 }
b100 ;
b100 J"
b100 w
b100 $"
b111 a
b111 ;"
b111 m"
b10 {
b10 &"
b10 ="
b11 '
b11 ""
b11 f
b11 T"
b0 >
b0 O"
b0 x
b0 <"
b10000000000 8"
b10010000 L
b10010000 b"
b10010000 i
b10010000 H"
b10010000 <
b10010000 K"
b10010000 8
b10010000 F"
b10010000 6
b10010000 D"
b10010000 z
b10010000 ~
b11 ?
b11 P"
b11 .
b11 )"
b11 r
b11 ^"
b111 3
b111 A"
b111 t
b111 \"
b110 T
b110 9"
b110 n"
1!
b1010 #
#65000
b100000 f"
0!
b1011 #
#70000
b1011 G
b1011 X"
b1011 g
b1011 N"
b1000 &
b1000 !"
b1000 k
b1000 B"
b0 a
b0 ;"
b0 m"
1J
1W
b0 K
b0 a"
b0 e
b0 W"
b1011 %
b1011 }
b1011 ;
b1011 J"
b1011 w
b1011 $"
01
0y
1C
1X
b100 (
b100 #"
b100 |
b100 '"
b0 {
b0 &"
b0 ="
b1000000000 8"
b100 L
b100 b"
b100 i
b100 H"
b111 T
b111 9"
b111 n"
b100 <
b100 K"
b100 8
b100 F"
b100 6
b100 D"
b100 z
b100 ~
1!
b1100 #
#75000
b100000 f"
0!
b1101 #
#80000
b1000000001000000100100 1"
b1000 &
b1000 !"
b1000 k
b1000 B"
0J
0W
b10 K
b10 a"
b10 e
b10 W"
01
0y
b1000 +
b1000 ("
b1000 j
b1000 E"
b1100 G
b1100 X"
b1100 g
b1100 N"
b1 a
b1 ;"
b1 m"
0C
0X
b100 (
b100 #"
b100 |
b100 '"
04
0m
b1100 %
b1100 }
b1100 ;
b1100 J"
b1100 w
b1100 $"
b0 {
b0 &"
b0 ="
07
0b
1F
b1000000001000000100100 0
b1000000001000000100100 >"
b1000000001000000100100 /
b1000000001000000100100 -"
b1000000001000000100100 q
b1000000001000000100100 *"
b100 '
b100 ""
b100 f
b100 T"
1^
1,
1d
b1 >
b1 O"
b1 x
b1 <"
b1011 L
b1011 b"
b1011 i
b1011 H"
1o
b1011 <
b1011 K"
b1011 8
b1011 F"
b1011 6
b1011 D"
b1011 z
b1011 ~
b10000000000000000 8"
b0 T
b0 9"
b0 n"
1!
b1110 #
#85000
b1100 Y"
b100000 f"
0!
b1111 #
#90000
b110 a
b110 ;"
b110 m"
b100000010011100 G
b100000010011100 X"
b100000010011100 g
b100000010011100 N"
0F
b100000010010000 '
b100000010010000 ""
b100000010010000 f
b100000010010000 T"
b100000010011100 %
b100000010011100 }
b100000010011100 ;
b100000010011100 J"
b100000010011100 w
b100000010011100 $"
0^
0,
0d
b11 >
b11 O"
b11 x
b11 <"
b100000010010000 B
b100000010010000 S"
b100000010010000 R
b100000010010000 j"
b100 (
b100 #"
b100 |
b100 '"
b100 *
b100 ]"
b100 Z
b100 c"
b0 K
b0 a"
b0 e
b0 W"
b10 )
b10 ["
b10 [
b10 d"
b1100 +
b1100 ("
b1100 j
b1100 E"
b1100 &
b1100 !"
b1100 k
b1100 B"
0o
b1100 L
b1100 b"
b1100 i
b1100 H"
b100000000100000010010000 h
b100000000100000010010000 L"
b100000000100000010010000 S
b100000000100000010010000 h"
b1000000001000000100100 M
b1000000001000000100100 g"
b1000000001000000100100 s
b1000000001000000100100 ."
b1000000100100 N
b1000000100100 i"
b1000000100100 A
b1000000100100 R"
b1000000100100 P
b1000000100100 l"
b1000000100100 O
b1000000100100 k"
b1000000100100 n
b1000000100100 0"
b100100 $
b100100 %"
b100100 p
b100100 /"
b10 E
b10 V"
b10 Y
b10 3"
b0 I
b0 `"
b0 D
b0 U"
b0 U
b0 5"
b1 H
b1 _"
b1 V
b1 4"
b1100 5
b1100 C"
b1100 2
b1100 @"
b1100 \
b1100 Z"
b1000000000010000 8"
b1 T
b1 9"
b1 n"
b1100 <
b1100 K"
b1100 8
b1100 F"
b1100 6
b1100 D"
b1100 z
b1100 ~
b1000000001000000100100 9
b1000000001000000100100 G"
b1000000001000000100100 l
b1000000001000000100100 ?"
1!
b10000 #
#95000
b100000 f"
0!
b10001 #
#100000
1u
b10 &
b10 !"
b10 k
b10 B"
11
1y
b0 G
b0 X"
b0 g
b0 N"
b0 (
b0 #"
b0 |
b0 '"
b0 %
b0 }
b0 ;
b0 J"
b0 w
b0 $"
b111 a
b111 ;"
b111 m"
b10 {
b10 &"
b10 ="
b100 '
b100 ""
b100 f
b100 T"
b0 >
b0 O"
b0 x
b0 <"
b10000000000 8"
b100000010011100 L
b100000010011100 b"
b100000010011100 i
b100000010011100 H"
b100000010011100 <
b100000010011100 K"
b100000010011100 8
b100000010011100 F"
b100000010011100 6
b100000010011100 D"
b100000010011100 z
b100000010011100 ~
b100 ?
b100 P"
b100 .
b100 )"
b100 r
b100 ^"
b10 3
b10 A"
b10 t
b10 \"
b110 T
b110 9"
b110 n"
1!
b10010 #
#105000
b100000 f"
0!
b10011 #
#110000
b10000 G
b10000 X"
b10000 g
b10000 N"
b1100 &
b1100 !"
b1100 k
b1100 B"
b0 a
b0 ;"
b0 m"
1J
1W
b10 K
b10 a"
b10 e
b10 W"
0u
b10000 %
b10000 }
b10000 ;
b10000 J"
b10000 w
b10000 $"
01
0y
1C
1X
b100 (
b100 #"
b100 |
b100 '"
b0 {
b0 &"
b0 ="
b1000000000 8"
b0 L
b0 b"
b0 i
b0 H"
b111 T
b111 9"
b111 n"
b0 <
b0 K"
b0 8
b0 F"
b0 6
b0 D"
b0 z
b0 ~
1!
b10100 #
#115000
b100000 f"
0!
b10101 #
#120000
b10000100000100101 1"
b10000 G
b10000 X"
b10000 g
b10000 N"
b1100 &
b1100 !"
b1100 k
b1100 B"
0J
0W
b0 K
b0 a"
b0 e
b0 W"
b10000 %
b10000 }
b10000 ;
b10000 J"
b10000 w
b10000 $"
01
0y
b1100 +
b1100 ("
b1100 j
b1100 E"
b1 a
b1 ;"
b1 m"
0C
0X
b100 (
b100 #"
b100 |
b100 '"
04
0m
b0 {
b0 &"
b0 ="
07
0b
1F
b10000100000100101 0
b10000100000100101 >"
b10000100000100101 /
b10000100000100101 -"
b10000100000100101 q
b10000100000100101 *"
1^
1,
1d
b1 >
b1 O"
b1 x
b1 <"
b10000 L
b10000 b"
b10000 i
b10000 H"
1o
b10000 <
b10000 K"
b10000 8
b10000 F"
b10000 6
b10000 D"
b10000 z
b10000 ~
b10000000000000000 8"
b0 T
b0 9"
b0 n"
1!
b10110 #
#125000
b10000 Y"
b100000 f"
0!
b10111 #
#130000
b10000010010100 '
b10000010010100 ""
b10000010010100 f
b10000010010100 T"
b110 a
b110 ;"
b110 m"
b10000010100100 G
b10000010100100 X"
b10000010100100 g
b10000010100100 N"
0F
b10000010100100 %
b10000010100100 }
b10000010100100 ;
b10000010100100 J"
b10000010100100 w
b10000010100100 $"
0^
0,
0d
b11 >
b11 O"
b11 x
b11 <"
b10000010010100 B
b10000010010100 S"
b10000010010100 R
b10000010010100 j"
b100 (
b100 #"
b100 |
b100 '"
b10 *
b10 ]"
b10 Z
b10 c"
b1 K
b1 a"
b1 e
b1 W"
b100 )
b100 ["
b100 [
b100 d"
b10000 +
b10000 ("
b10000 j
b10000 E"
b10000 &
b10000 !"
b10000 k
b10000 B"
0o
b1000010000010010100 h
b1000010000010010100 L"
b1000010000010010100 S
b1000010000010010100 h"
b10000100000100101 M
b10000100000100101 g"
b10000100000100101 s
b10000100000100101 ."
b100000100101 N
b100000100101 i"
b100000100101 A
b100000100101 R"
b100000100101 P
b100000100101 l"
b100000100101 O
b100000100101 k"
b100000100101 n
b100000100101 0"
b100101 $
b100101 %"
b100101 p
b100101 /"
b1 E
b1 V"
b1 Y
b1 3"
b1 I
b1 `"
b1 D
b1 U"
b1 U
b1 5"
b0 H
b0 _"
b0 V
b0 4"
b10000 5
b10000 C"
b10000 2
b10000 @"
b10000 \
b10000 Z"
b1000000000010000 8"
b1 T
b1 9"
b1 n"
b10000100000100101 9
b10000100000100101 G"
b10000100000100101 l
b10000100000100101 ?"
1!
b11000 #
#135000
b100000 f"
0!
b11001 #
#140000
b100 &
b100 !"
b100 k
b100 B"
11
1y
b110 G
b110 X"
b110 g
b110 N"
b1 (
b1 #"
b1 |
b1 '"
b110 %
b110 }
b110 ;
b110 J"
b110 w
b110 $"
b111 a
b111 ;"
b111 m"
b10 {
b10 &"
b10 ="
b10 '
b10 ""
b10 f
b10 T"
b0 >
b0 O"
b0 x
b0 <"
b10000000000 8"
b10000010100100 L
b10000010100100 b"
b10000010100100 i
b10000010100100 H"
b10000010100100 <
b10000010100100 K"
b10000010100100 8
b10000010100100 F"
b10000010100100 6
b10000010100100 D"
b10000010100100 z
b10000010100100 ~
b10 ?
b10 P"
b10 .
b10 )"
b10 r
b10 ^"
b100 3
b100 A"
b100 t
b100 \"
b110 T
b110 9"
b110 n"
1!
b11010 #
#145000
b100000 f"
0!
b11011 #
#150000
b10010 G
b10010 X"
b10010 g
b10010 N"
b10000 &
b10000 !"
b10000 k
b10000 B"
b0 a
b0 ;"
b0 m"
1J
1W
b10010 %
b10010 }
b10010 ;
b10010 J"
b10010 w
b10010 $"
01
0y
1C
1X
b100 (
b100 #"
b100 |
b100 '"
b0 {
b0 &"
b0 ="
b1000000000 8"
b110 L
b110 b"
b110 i
b110 H"
b111 T
b111 9"
b111 n"
b110 <
b110 K"
b110 8
b110 F"
b110 6
b110 D"
b110 z
b110 ~
1!
b11100 #
#155000
b100000 f"
b110 *
b110 ]"
b110 Z
b110 c"
0!
b11101 #
#160000
b10001100010000000000000000000010 1"
b10000 &
b10000 !"
b10000 k
b10000 B"
0J
0W
01
0y
b10000 +
b10000 ("
b10000 j
b10000 E"
b1 a
b1 ;"
b1 m"
0C
0X
b100 (
b100 #"
b100 |
b100 '"
04
0m
b10100 G
b10100 X"
b10100 g
b10100 N"
b0 {
b0 &"
b0 ="
07
0b
1F
b10001100010000000000000000000010 0
b10001100010000000000000000000010 >"
b10001100010000000000000000000010 /
b10001100010000000000000000000010 -"
b10001100010000000000000000000010 q
b10001100010000000000000000000010 *"
b10100 %
b10100 }
b10100 ;
b10100 J"
b10100 w
b10100 $"
1^
1,
1d
b1 >
b1 O"
b1 x
b1 <"
b10010 L
b10010 b"
b10010 i
b10010 H"
b100 '
b100 ""
b100 f
b100 T"
1o
b10010 <
b10010 K"
b10010 8
b10010 F"
b10010 6
b10010 D"
b10010 z
b10010 ~
b110 ?
b110 P"
b110 .
b110 )"
b110 r
b110 ^"
b10000000000000000 8"
b0 T
b0 9"
b0 n"
1!
b11110 #
#165000
b10100 Y"
b100000 f"
0!
b11111 #
#170000
b10 a
b10 ;"
b10 m"
b11100 G
b11100 X"
b11100 g
b11100 N"
0F
b1000 '
b1000 ""
b1000 f
b1000 T"
b11100 %
b11100 }
b11100 ;
b11100 J"
b11100 w
b11100 $"
0^
0,
0d
b11 >
b11 O"
b11 x
b11 <"
b1000 B
b1000 S"
b1000 R
b1000 j"
b100 (
b100 #"
b100 |
b100 '"
b100 *
b100 ]"
b100 Z
b100 c"
b0 K
b0 a"
b0 e
b0 W"
b0 )
b0 ["
b0 [
b0 d"
b10100 +
b10100 ("
b10100 j
b10100 E"
b10100 &
b10100 !"
b10100 k
b10100 B"
0o
b10100 L
b10100 b"
b10100 i
b10100 H"
b1000000000000000000001000 h
b1000000000000000000001000 L"
b1000000000000000000001000 S
b1000000000000000000001000 h"
b10000000000000000000010 M
b10000000000000000000010 g"
b10000000000000000000010 s
b10000000000000000000010 ."
b10 N
b10 i"
b10 A
b10 R"
b10 P
b10 l"
b10 O
b10 k"
b10 n
b10 0"
b10 $
b10 %"
b10 p
b10 /"
b0 E
b0 V"
b0 Y
b0 3"
b0 I
b0 `"
b0 D
b0 U"
b0 U
b0 5"
b10 H
b10 _"
b10 V
b10 4"
b100011 `
b100011 2"
b100011 7"
b10100 5
b10100 C"
b10100 2
b10100 @"
b10100 \
b10100 Z"
b1000000000000010 8"
b1 T
b1 9"
b1 n"
b10100 <
b10100 K"
b10100 8
b10100 F"
b10100 6
b10100 D"
b10100 z
b10100 ~
b10001100010000000000000000000010 9
b10001100010000000000000000000010 G"
b10001100010000000000000000000010 l
b10001100010000000000000000000010 ?"
1!
b100000 #
#175000
b100000 f"
0!
b100001 #
