Single_Cycle/build/sc_wave.vcd
$date
	Tue Jan 04 21:29:40 2022
$end
$version
	Icarus Verilog
$end
$timescale
	1ps
$end
$scope module SC_CPU_tb $end
$var reg 1 ! clk $end
$var reg 1 " reset $end
$var integer 32 # i [31:0] $end
$scope module sc_cpu $end
$var wire 6 $ ALUCU_funct [5:0] $end
$var wire 32 % ALU_a [31:0] $end
$var wire 32 & ALU_b [31:0] $end
$var wire 3 ' ALU_mod [2:0] $end
$var wire 32 ( Add1_a [31:0] $end
$var wire 32 ) Add1_b [31:0] $end
$var wire 32 * Add2_a [31:0] $end
$var wire 32 + Add2_b [31:0] $end
$var wire 32 , DM_Addr [31:0] $end
$var wire 1 - DM_R $end
$var wire 1 . DM_W $end
$var wire 32 / DM_W_data [31:0] $end
$var wire 32 0 Inst_Addr [31:0] $end
$var wire 1 1 MUX32_1_c $end
$var wire 32 2 MUX32_1_i0 [31:0] $end
$var wire 1 3 MUX32_2_c $end
$var wire 32 4 MUX32_2_i0 [31:0] $end
$var wire 32 5 MUX32_2_i1 [31:0] $end
$var wire 1 6 MUX32_3_c $end
$var wire 32 7 MUX32_3_i0 [31:0] $end
$var wire 32 8 MUX32_3_i1 [31:0] $end
$var wire 1 9 MUX32_4_c $end
$var wire 32 : MUX32_4_i0 [31:0] $end
$var wire 32 ; MUX32_4_i1 [31:0] $end
$var wire 1 < MUX5_1_c $end
$var wire 5 = MUX5_1_i0 [4:0] $end
$var wire 5 > MUX5_1_i1 [4:0] $end
$var wire 32 ? PC_in [31:0] $end
$var wire 5 @ RF_R_Reg1 [4:0] $end
$var wire 5 A RF_R_Reg2 [4:0] $end
$var wire 1 B RF_W $end
$var wire 5 C RF_W_Reg [4:0] $end
$var wire 32 D RF_W_data [31:0] $end
$var wire 26 E SHL26_in [25:0] $end
$var wire 32 F SHL32_in [31:0] $end
$var wire 16 G Sig16 [15:0] $end
$var wire 1 ! clk $end
$var wire 1 " reset $end
$var wire 32 H Sig32 [31:0] $end
$var wire 5 I Shamt [4:0] $end
$var wire 32 J SHL32_out [31:0] $end
$var wire 28 K SHL26_out [27:0] $end
$var wire 5 L Rt [4:0] $end
$var wire 5 M Rs [4:0] $end
$var wire 1 N RegWr $end
$var wire 1 O RegDst $end
$var wire 5 P Rd [4:0] $end
$var wire 32 Q RF_R_data2 [31:0] $end
$var wire 32 R RF_R_data1 [31:0] $end
$var wire 32 S PC_out [31:0] $end
$var wire 6 T OP_Code [5:0] $end
$var wire 1 U MemtoReg $end
$var wire 1 V MemWr $end
$var wire 1 W MemRd $end
$var wire 5 X MUX5_1_out [4:0] $end
$var wire 32 Y MUX32_4_out [31:0] $end
$var wire 32 Z MUX32_3_out [31:0] $end
$var wire 32 [ MUX32_2_out [31:0] $end
$var wire 32 \ MUX32_1_out [31:0] $end
$var wire 32 ] MUX32_1_i1 [31:0] $end
$var wire 1 ^ Jump $end
$var wire 16 _ Imm16 [15:0] $end
$var wire 6 ` Func [5:0] $end
$var wire 32 a DM_R_data [31:0] $end
$var wire 1 b Branch $end
$var wire 26 c Addr26 [25:0] $end
$var wire 32 d Add2_c [31:0] $end
$var wire 32 e Add1_c [31:0] $end
$var wire 1 f ALU_z $end
$var wire 1 g ALU_o $end
$var wire 32 h ALU_c [31:0] $end
$var wire 1 i ALUSrc $end
$var wire 2 j ALUOp [1:0] $end
$var wire 3 k ALUCtrl [2:0] $end
$scope module add1 $end
$var wire 32 l a [31:0] $end
$var wire 32 m b [31:0] $end
$var wire 32 n c [31:0] $end
$upscope $end
$scope module add2 $end
$var wire 32 o a [31:0] $end
$var wire 32 p b [31:0] $end
$var wire 32 q c [31:0] $end
$upscope $end
$scope module alu $end
$var wire 32 r a [31:0] $end
$var wire 32 s b [31:0] $end
$var wire 3 t mod [2:0] $end
$var reg 32 u out [31:0] $end
$var reg 1 g overflow $end
$var reg 1 f zero $end
$upscope $end
$scope module alucu $end
$var wire 6 v funct [5:0] $end
$var wire 2 w ALUOp [1:0] $end
$var reg 3 x ALUCtrl [2:0] $end
$upscope $end
$scope module dm $end
$var wire 32 y Addr [31:0] $end
$var wire 1 - R $end
$var wire 1 . W $end
$var wire 32 z W_data [31:0] $end
$var reg 32 { R_data [31:0] $end
$var integer 32 | fd1 [31:0] $end
$var integer 32 } i [31:0] $end
$upscope $end
$scope module im $end
$var wire 32 ~ Addr [31:0] $end
$var wire 5 !" Shamt [4:0] $end
$var wire 5 "" Rt [4:0] $end
$var wire 5 #" Rs [4:0] $end
$var wire 5 $" Rd [4:0] $end
$var wire 6 %" OP_Code [5:0] $end
$var wire 16 &" Imm16 [15:0] $end
$var wire 6 '" Func [5:0] $end
$var wire 26 (" Addr26 [25:0] $end
$var reg 32 )" Inst [31:0] $end
$upscope $end
$scope module mcu $end
$var wire 6 *" OP_Code [5:0] $end
$var reg 2 +" ALUOp [1:0] $end
$var reg 1 i ALUSrc $end
$var reg 1 b Branch $end
$var reg 1 ^ Jump $end
$var reg 1 W MemRd $end
$var reg 1 V MemWr $end
$var reg 1 U MemtoReg $end
$var reg 1 O RegDst $end
$var reg 1 N RegWr $end
$upscope $end
$scope module mux32_1 $end
$var wire 1 1 Ctrl $end
$var wire 32 ," i0 [31:0] $end
$var wire 32 -" i1 [31:0] $end
$var wire 32 ." out [31:0] $end
$upscope $end
$scope module mux32_2 $end
$var wire 1 3 Ctrl $end
$var wire 32 /" i0 [31:0] $end
$var wire 32 0" i1 [31:0] $end
$var wire 32 1" out [31:0] $end
$upscope $end
$scope module mux32_3 $end
$var wire 1 6 Ctrl $end
$var wire 32 2" i0 [31:0] $end
$var wire 32 3" i1 [31:0] $end
$var wire 32 4" out [31:0] $end
$upscope $end
$scope module mux32_4 $end
$var wire 1 9 Ctrl $end
$var wire 32 5" i0 [31:0] $end
$var wire 32 6" i1 [31:0] $end
$var wire 32 7" out [31:0] $end
$upscope $end
$scope module mux5 $end
$var wire 1 < Ctrl $end
$var wire 5 8" i0 [4:0] $end
$var wire 5 9" i1 [4:0] $end
$var wire 5 :" out [4:0] $end
$upscope $end
$scope module pc $end
$var wire 32 ;" addrin [31:0] $end
$var wire 1 ! clk $end
$var wire 1 " reset $end
$var reg 32 <" addrout [31:0] $end
$upscope $end
$scope module rf $end
$var wire 5 =" R_Reg1 [4:0] $end
$var wire 5 >" R_Reg2 [4:0] $end
$var wire 1 B W $end
$var wire 5 ?" W_Reg [4:0] $end
$var wire 32 @" W_data [31:0] $end
$var wire 1 ! clk $end
$var wire 32 A" R_data2 [31:0] $end
$var wire 32 B" R_data1 [31:0] $end
$var integer 32 C" fd1 [31:0] $end
$var integer 32 D" i [31:0] $end
$upscope $end
$scope module shl2_26 $end
$var wire 26 E" in [25:0] $end
$var wire 28 F" out [27:0] $end
$upscope $end
$scope module shl2_32 $end
$var wire 32 G" in [31:0] $end
$var wire 32 H" out [31:0] $end
$upscope $end
$scope module sigext $end
$var wire 16 I" in [15:0] $end
$var wire 32 J" out [31:0] $end
$upscope $end
$upscope $end
$upscope $end
$enddefinitions $end
#0
$dumpvars
b1000000100000 J"
b1000000100000 I"
b100000010000000 H"
b1000000100000 G"
b1000100000010000000 F"
b10001000000100000 E"
b100000 D"
b10 C"
b1 B"
b10 A"
b11 @"
b10 ?"
b1 >"
b0 ="
b0 <"
b100 ;"
b10 :"
b10 9"
b1 8"
b11 7"
bx 6"
b11 5"
b10 4"
b1000000100000 3"
b10 2"
b100 1"
b100000010000100 0"
b100 /"
b100 ."
b1000100000010000000 -"
b100 ,"
b10 +"
b0 *"
b10001000000100000 )"
b10001000000100000 ("
b100000 '"
b1000000100000 &"
b0 %"
b10 $"
b0 #"
b1 ""
b0 !"
b0 ~
bx }
bx |
bx {
b10 z
b11 y
b100 x
b10 w
b100000 v
b11 u
b100 t
b10 s
b1 r
b100000010000100 q
b100000010000000 p
b100 o
b100 n
b0 m
b100 l
b100 k
b10 j
0i
b11 h
0g
0f
b100 e
b100000010000100 d
b10001000000100000 c
0b
bx a
b100000 `
b1000000100000 _
0^
b1000100000010000000 ]
b100 \
b100 [
b10 Z
b11 Y
b10 X
0W
0V
0U
b0 T
b0 S
b1 R
b10 Q
b10 P
1O
1N
b0 M
b1 L
b1000100000010000000 K
b100000010000000 J
b0 I
b1000000100000 H
b1000000100000 G
b1000000100000 F
b10001000000100000 E
b11 D
b10 C
1B
b1 A
b0 @
b100 ?
b10 >
b1 =
1<
bx ;
b11 :
09
b1000000100000 8
b10 7
06
b100000010000100 5
b100 4
03
b100 2
01
b0 0
b10 /
0.
0-
b11 ,
b100000010000000 +
b100 *
b0 )
b100 (
b100 '
b10 &
b1 %
b100000 $
bx #
1"
0!
$end
#5000
1!
#10000
0"
#15000
b100000 D"
0!
b0 #
#20000
b100 D
b100 @"
b100 Y
b100 7"
b11 &
b11 s
b11 Z
b11 4"
b100 :
b100 5"
b100 ,
b100 y
b100 h
b100 u
b111 %
b111 r
b111 R
b111 B"
b11 7
b11 2"
b11 /
b11 z
b11 Q
b11 A"
b0 C
b0 ?"
b0 X
b0 :"
b110 '
b110 t
b110 k
b110 x
b10001000 +
b10001000 p
b10001000 J
b10001000 H"
b11 @
b11 ="
b11 M
b11 #"
b10 A
b10 >"
b10 =
b10 8"
b10 L
b10 ""
b0 >
b0 9"
b0 P
b0 $"
b100010 $
b100010 v
b100010 `
b100010 '"
b100010 F
b100010 G"
b100010 8
b100010 3"
b100010 H
b100010 J"
b100010 G
b100010 I"
b100010 _
b100010 &"
b1100010000000000010001000 ]
b1100010000000000010001000 -"
b1100010000000000010001000 K
b1100010000000000010001000 F"
b11000100000000000100010 E
b11000100000000000100010 E"
b11000100000000000100010 c
b11000100000000000100010 ("
b1000 ?
b1000 ;"
b1000 \
b1000 ."
b11000100000000000100010 )"
b1000 2
b1000 ,"
b1000 [
b1000 1"
b100 0
b100 ~
b1000 4
b1000 /"
b10010000 5
b10010000 0"
b10010000 d
b10010000 q
b1000 *
b1000 o
b1000 e
b1000 n
b100 )
b100 m
b100 S
b100 <"
1!
b1 #
#25000
b100000 D"
0!
b10 #
#30000
1f
b0 D
b0 @"
b0 Y
b0 7"
b100 &
b100 s
b100 Z
b100 4"
b0 :
b0 5"
b0 ,
b0 y
b0 h
b0 u
b10 %
b10 r
b10 R
b10 B"
b100 7
b100 2"
b100 /
b100 z
b100 Q
b100 A"
b10 C
b10 ?"
b10 X
b10 :"
b0 '
b0 t
b0 k
b0 x
b100000010010000 +
b100000010010000 p
b100000010010000 J
b100000010010000 H"
b1 @
b1 ="
b1 M
b1 #"
b0 A
b0 >"
b0 =
b0 8"
b0 L
b0 ""
b10 >
b10 9"
b10 P
b10 $"
b100100 $
b100100 v
b100100 `
b100100 '"
b1000000100100 F
b1000000100100 G"
b1000000100100 8
b1000000100100 3"
b1000000100100 H
b1000000100100 J"
b1000000100100 G
b1000000100100 I"
b1000000100100 _
b1000000100100 &"
b100000000100000010010000 ]
b100000000100000010010000 -"
b100000000100000010010000 K
b100000000100000010010000 F"
b1000000001000000100100 E
b1000000001000000100100 E"
b1000000001000000100100 c
b1000000001000000100100 ("
b1100 ?
b1100 ;"
b1100 \
b1100 ."
b1000000001000000100100 )"
b1100 2
b1100 ,"
b1100 [
b1100 1"
b1000 0
b1000 ~
b1100 4
b1100 /"
b100000010011100 5
b100000010011100 0"
b100000010011100 d
b100000010011100 q
b1100 *
b1100 o
b1100 e
b1100 n
b1000 )
b1000 m
b1000 S
b1000 <"
1!
b11 #
#35000
b100000 D"
0!
b100 #
#40000
b110 D
b110 @"
b110 Y
b110 7"
b10 &
b10 s
b10 Z
b10 4"
0f
b110 :
b110 5"
b110 ,
b110 y
b110 h
b110 u
b100 %
b100 r
b100 R
b100 B"
b10 7
b10 2"
b10 /
b10 z
b10 Q
b10 A"
b1 C
b1 ?"
b1 X
b1 :"
b1 '
b1 t
b1 k
b1 x
b10000010010100 +
b10000010010100 p
b10000010010100 J
b10000010010100 H"
b0 @
b0 ="
b0 M
b0 #"
b1 A
b1 >"
b1 =
b1 8"
b1 L
b1 ""
b1 >
b1 9"
b1 P
b1 $"
b100101 $
b100101 v
b100101 `
b100101 '"
b100000100101 F
b100000100101 G"
b100000100101 8
b100000100101 3"
b100000100101 H
b100000100101 J"
b100000100101 G
b100000100101 I"
b100000100101 _
b100000100101 &"
b1000010000010010100 ]
b1000010000010010100 -"
b1000010000010010100 K
b1000010000010010100 F"
b10000100000100101 E
b10000100000100101 E"
b10000100000100101 c
b10000100000100101 ("
b10000 ?
b10000 ;"
b10000 \
b10000 ."
b10000100000100101 )"
b10000 2
b10000 ,"
b10000 [
b10000 1"
b1100 0
b1100 ~
b10000 4
b10000 /"
b10000010100100 5
b10000010100100 0"
b10000010100100 d
b10000010100100 q
b10000 *
b10000 o
b10000 e
b10000 n
b1100 )
b1100 m
b1100 S
b1100 <"
1!
b101 #
#45000
b110 :
b110 5"
b110 ,
b110 y
b110 h
b110 u
b110 &
b110 s
b110 Z
b110 4"
b100000 D"
b110 7
b110 2"
b110 /
b110 z
b110 Q
b110 A"
0!
b110 #
#50000
b0 D
b0 @"
b0 Y
b0 7"
b10 &
b10 s
b10 Z
b10 4"
b0 ;
b0 6"
b0 a
b0 {
0f
b10 :
b10 5"
b10 ,
b10 y
b10 h
b10 u
19
1U
1-
1W
16
1i
1B
1N
0<
0O
b0 j
b0 w
b0 +"
b0 %
b0 r
b0 R
b0 B"
b100 7
b100 2"
b100 /
b100 z
b100 Q
b100 A"
b0 C
b0 ?"
b0 X
b0 :"
b100 '
b100 t
b100 k
b100 x
b1000 +
b1000 p
b1000 J
b1000 H"
b100011 T
b100011 %"
b100011 *"
b10 @
b10 ="
b10 M
b10 #"
b0 A
b0 >"
b0 =
b0 8"
b0 L
b0 ""
b0 >
b0 9"
b0 P
b0 $"
b10 $
b10 v
b10 `
b10 '"
b10 F
b10 G"
b10 8
b10 3"
b10 H
b10 J"
b10 G
b10 I"
b10 _
b10 &"
b1000000000000000000001000 ]
b1000000000000000000001000 -"
b1000000000000000000001000 K
b1000000000000000000001000 F"
b10000000000000000000010 E
b10000000000000000000010 E"
b10000000000000000000010 c
b10000000000000000000010 ("
b10100 ?
b10100 ;"
b10100 \
b10100 ."
b10001100010000000000000000000010 )"
b10100 2
b10100 ,"
b10100 [
b10100 1"
b10000 0
b10000 ~
b10100 4
b10100 /"
b11100 5
b11100 0"
b11100 d
b11100 q
b10100 *
b10100 o
b10100 e
b10100 n
b10000 )
b10000 m
b10000 S
b10000 <"
1!
b111 #
#55000
b100000 D"
b0 7
b0 2"
b0 /
b0 z
b0 Q
b0 A"
0!
b1000 #
#60000
b111 D
b111 @"
b111 Y
b111 7"
b111 ;
b111 6"
b111 a
b111 {
b11 :
b11 5"
b11 ,
b11 y
b11 h
b11 u
b10 C
b10 ?"
b10 X
b10 :"
b100 '
b100 t
b100 k
b100 x
b1100 +
b1100 p
b1100 J
b1100 H"
b11 &
b11 s
b11 Z
b11 4"
b0 @
b0 ="
b0 M
b0 #"
b10 A
b10 >"
b10 =
b10 8"
b10 L
b10 ""
b11 $
b11 v
b11 `
b11 '"
b11 F
b11 G"
b11 8
b11 3"
b11 H
b11 J"
b11 G
b11 I"
b11 _
b11 &"
b10000000000000001100 ]
b10000000000000001100 -"
b10000000000000001100 K
b10000000000000001100 F"
b100000000000000011 E
b100000000000000011 E"
b100000000000000011 c
b100000000000000011 ("
b11000 ?
b11000 ;"
b11000 \
b11000 ."
b10001100000000100000000000000011 )"
b11000 2
b11000 ,"
b11000 [
b11000 1"
b10100 0
b10100 ~
b11000 4
b11000 /"
b100100 5
b100100 0"
b100100 d
b100100 q
b11000 *
b11000 o
b11000 e
b11000 n
b10100 )
b10100 m
b10100 S
b10100 <"
1!
b1001 #
#65000
b100000 D"
b111 7
b111 2"
b111 /
b111 z
b111 Q
b111 A"
0!
b1010 #
#70000
b10 D
b10 @"
b10 Y
b10 7"
b10 ;
b10 6"
b10 a
b10 {
b111 :
b111 5"
b111 ,
b111 y
b111 h
b111 u
b110 %
b110 r
b110 R
b110 B"
b0 7
b0 2"
b0 /
b0 z
b0 Q
b0 A"
b0 C
b0 ?"
b0 X
b0 :"
b100 '
b100 t
b100 k
b100 x
b100 +
b100 p
b100 J
b100 H"
b1 &
b1 s
b1 Z
b1 4"
b1 @
b1 ="
b1 M
b1 #"
b0 A
b0 >"
b0 =
b0 8"
b0 L
b0 ""
b1 $
b1 v
b1 `
b1 '"
b1 F
b1 G"
b1 8
b1 3"
b1 H
b1 J"
b1 G
b1 I"
b1 _
b1 &"
b100000000000000000000100 ]
b100000000000000000000100 -"
b100000000000000000000100 K
b100000000000000000000100 F"
b1000000000000000000001 E
b1000000000000000000001 E"
b1000000000000000000001 c
b1000000000000000000001 ("
b11100 ?
b11100 ;"
b11100 \
b11100 ."
b10001100001000000000000000000001 )"
b11100 2
b11100 ,"
b11100 [
b11100 1"
b11000 0
b11000 ~
b11100 4
b11100 /"
b100000 5
b100000 0"
b100000 d
b100000 q
b11100 *
b11100 o
b11100 e
b11100 n
b11000 )
b11000 m
b11000 S
b11000 <"
1!
b1011 #
#75000
b100000 D"
b10 7
b10 2"
b10 /
b10 z
b10 Q
b10 A"
0!
b1100 #
#80000
b0 D
b0 @"
b0 Y
b0 7"
b0 ;
b0 6"
b0 a
b0 {
b110 :
b110 5"
b110 ,
b110 y
b110 h
b110 u
b10 %
b10 r
b10 R
b10 B"
b110 7
b110 2"
b110 /
b110 z
b110 Q
b110 A"
b1 C
b1 ?"
b1 X
b1 :"
b100 '
b100 t
b100 k
b100 x
b10000 +
b10000 p
b10000 J
b10000 H"
b100 &
b100 s
b100 Z
b100 4"
b0 @
b0 ="
b0 M
b0 #"
b1 A
b1 >"
b1 =
b1 8"
b1 L
b1 ""
b100 $
b100 v
b100 `
b100 '"
b100 F
b100 G"
b100 8
b100 3"
b100 H
b100 J"
b100 G
b100 I"
b100 _
b100 &"
b1000000000000010000 ]
b1000000000000010000 -"
b1000000000000010000 K
b1000000000000010000 F"
b10000000000000100 E
b10000000000000100 E"
b10000000000000100 c
b10000000000000100 ("
b100000 ?
b100000 ;"
b100000 \
b100000 ."
b10001100000000010000000000000100 )"
b100000 2
b100000 ,"
b100000 [
b100000 1"
b11100 0
b11100 ~
b100000 4
b100000 /"
b110000 5
b110000 0"
b110000 d
b110000 q
b100000 *
b100000 o
b100000 e
b100000 n
b11100 )
b11100 m
b11100 S
b11100 <"
1!
b1101 #
#85000
b100000 D"
b0 7
b0 2"
b0 /
b0 z
b0 Q
b0 A"
0!
b1110 #
#90000
13
1f
b0 D
b0 @"
b0 Y
b0 7"
b0 :
b0 5"
b0 ,
b0 y
b0 h
b0 u
b1 j
b1 w
b1 +"
1b
0-
0W
09
0U
0B
0N
06
0i
b111 %
b111 r
b111 R
b111 B"
b111 7
b111 2"
b111 /
b111 z
b111 Q
b111 A"
b11 C
b11 ?"
b11 X
b11 :"
b110 '
b110 t
b110 k
b110 x
b100 +
b100 p
b100 J
b100 H"
b111 &
b111 s
b111 Z
b111 4"
b100 T
b100 %"
b100 *"
b10 @
b10 ="
b10 M
b10 #"
b11 A
b11 >"
b11 =
b11 8"
b11 L
b11 ""
b1 $
b1 v
b1 `
b1 '"
b1 F
b1 G"
b1 8
b1 3"
b1 H
b1 J"
b1 G
b1 I"
b1 _
b1 &"
b1000011000000000000000100 ]
b1000011000000000000000100 -"
b1000011000000000000000100 K
b1000011000000000000000100 F"
b10000110000000000000001 E
b10000110000000000000001 E"
b10000110000000000000001 c
b10000110000000000000001 ("
b101000 ?
b101000 ;"
b101000 \
b101000 ."
b10000010000110000000000000001 )"
b101000 2
b101000 ,"
b101000 [
b101000 1"
b100000 0
b100000 ~
b100100 4
b100100 /"
b101000 5
b101000 0"
b101000 d
b101000 q
b100100 *
b100100 o
b100100 e
b100100 n
b100000 )
b100000 m
b100000 S
b100000 <"
1!
b1111 #
#95000
b100000 D"
0!
b10000 #
#100000
b100 D
b100 @"
b100 Y
b100 7"
03
b10 &
b10 s
b10 Z
b10 4"
0f
b100 :
b100 5"
b100 ,
b100 y
b100 h
b100 u
11
1^
0b
b0 j
b0 w
b0 +"
b10 %
b10 r
b10 R
b10 B"
b10 7
b10 2"
b10 /
b10 z
b10 Q
b10 A"
b0 C
b0 ?"
b0 X
b0 :"
b100 '
b100 t
b100 k
b100 x
b110000 +
b110000 p
b110000 J
b110000 H"
b10 T
b10 %"
b10 *"
b0 @
b0 ="
b0 M
b0 #"
b0 A
b0 >"
b0 =
b0 8"
b0 L
b0 ""
b1100 $
b1100 v
b1100 `
b1100 '"
b1100 F
b1100 G"
b1100 8
b1100 3"
b1100 H
b1100 J"
b1100 G
b1100 I"
b1100 _
b1100 &"
b110000 ]
b110000 -"
b110000 K
b110000 F"
b1100 E
b1100 E"
b1100 c
b1100 ("
b110000 ?
b110000 ;"
b110000 \
b110000 ."
b1000000000000000000000001100 )"
b101100 2
b101100 ,"
b101100 [
b101100 1"
b101000 0
b101000 ~
b101100 4
b101100 /"
b1011100 5
b1011100 0"
b1011100 d
b1011100 q
b101100 *
b101100 o
b101100 e
b101100 n
b101000 )
b101000 m
b101000 S
b101000 <"
1!
b10001 #
#105000
b100000 D"
0!
b10010 #
#110000
b100000 }
b10 |
b100 :
b100 5"
b100 ,
b100 y
b100 h
b100 u
1.
1V
16
1i
01
0^
b100 '
b100 t
b100 k
b100 x
b1000 +
b1000 p
b1000 J
b1000 H"
b110100 ?
b110100 ;"
b110100 \
b110100 ."
b101011 T
b101011 %"
b101011 *"
b10 $
b10 v
b10 `
b10 '"
b10 F
b10 G"
b10 8
b10 3"
b10 H
b10 J"
b10 G
b10 I"
b10 _
b10 &"
b1000 ]
b1000 -"
b1000 K
b1000 F"
b10 E
b10 E"
b10 c
b10 ("
b10101100000000000000000000000010 )"
b110100 2
b110100 ,"
b110100 [
b110100 1"
b110000 0
b110000 ~
b110100 4
b110100 /"
b111100 5
b111100 0"
b111100 d
b111100 q
b110100 *
b110100 o
b110100 e
b110100 n
b110000 )
b110000 m
b110000 S
b110000 <"
1!
b10011 #
#115000
b100000 D"
0!
b10100 #
#120000
b101 D
b101 @"
b101 Y
b101 7"
b100000 }
b101 :
b101 5"
b101 ,
b101 y
b101 h
b101 u
b0 %
b0 r
b0 R
b0 B"
b0 7
b0 2"
b0 /
b0 z
b0 Q
b0 A"
b1 C
b1 ?"
b1 X
b1 :"
b100 '
b100 t
b100 k
b100 x
b10100 +
b10100 p
b10100 J
b10100 H"
b101 &
b101 s
b101 Z
b101 4"
b1 @
b1 ="
b1 M
b1 #"
b1 A
b1 >"
b1 =
b1 8"
b1 L
b1 ""
b101 $
b101 v
b101 `
b101 '"
b101 F
b101 G"
b101 8
b101 3"
b101 H
b101 J"
b101 G
b101 I"
b101 _
b101 &"
b100001000000000000010100 ]
b100001000000000000010100 -"
b100001000000000000010100 K
b100001000000000000010100 F"
b1000010000000000000101 E
b1000010000000000000101 E"
b1000010000000000000101 c
b1000010000000000000101 ("
b111000 ?
b111000 ;"
b111000 \
b111000 ."
b10101100001000010000000000000101 )"
b111000 2
b111000 ,"
b111000 [
b111000 1"
b110100 0
b110100 ~
b111000 4
b111000 /"
b1001100 5
b1001100 0"
b1001100 d
b1001100 q
b111000 *
b111000 o
b111000 e
b111000 n
b110100 )
b110100 m
b110100 S
b110100 <"
1!
b10101 #
#125000
b100000 D"
0!
b10110 #
#130000
b110 D
b110 @"
b110 Y
b110 7"
b100000 }
b110 :
b110 5"
b110 ,
b110 y
b110 h
b110 u
b10 %
b10 r
b10 R
b10 B"
b111 7
b111 2"
b111 /
b111 z
b111 Q
b111 A"
b10 C
b10 ?"
b10 X
b10 :"
b100 '
b100 t
b100 k
b100 x
b10000 +
b10000 p
b10000 J
b10000 H"
b100 &
b100 s
b100 Z
b100 4"
b0 @
b0 ="
b0 M
b0 #"
b10 A
b10 >"
b10 =
b10 8"
b10 L
b10 ""
b100 $
b100 v
b100 `
b100 '"
b100 F
b100 G"
b100 8
b100 3"
b100 H
b100 J"
b100 G
b100 I"
b100 _
b100 &"
b10000000000000010000 ]
b10000000000000010000 -"
b10000000000000010000 K
b10000000000000010000 F"
b100000000000000100 E
b100000000000000100 E"
b100000000000000100 c
b100000000000000100 ("
b111100 ?
b111100 ;"
b111100 \
b111100 ."
b10101100000000100000000000000100 )"
b111100 2
b111100 ,"
b111100 [
b111100 1"
b111000 0
b111000 ~
b111100 4
b111100 /"
b1001100 5
b1001100 0"
b1001100 d
b1001100 q
b111100 *
b111100 o
b111100 e
b111100 n
b111000 )
b111000 m
b111000 S
b111000 <"
1!
b10111 #
#135000
b100000 D"
0!
b11000 #
#140000
b111 D
b111 @"
b111 Y
b111 7"
b100000 }
b111 :
b111 5"
b111 ,
b111 y
b111 h
b111 u
b111 %
b111 r
b111 R
b111 B"
b11 C
b11 ?"
b11 X
b11 :"
b100 '
b100 t
b100 k
b100 x
b0 +
b0 p
b0 J
b0 H"
b0 &
b0 s
b0 Z
b0 4"
b10 @
b10 ="
b10 M
b10 #"
b11 A
b11 >"
b11 =
b11 8"
b11 L
b11 ""
b0 $
b0 v
b0 `
b0 '"
b0 F
b0 G"
b0 8
b0 3"
b0 H
b0 J"
b0 G
b0 I"
b0 _
b0 &"
b1000011000000000000000000 ]
b1000011000000000000000000 -"
b1000011000000000000000000 K
b1000011000000000000000000 F"
b10000110000000000000000 E
b10000110000000000000000 E"
b10000110000000000000000 c
b10000110000000000000000 ("
b1000000 ?
b1000000 ;"
b1000000 \
b1000000 ."
b10101100010000110000000000000000 )"
b1000000 2
b1000000 ,"
b1000000 [
b1000000 1"
b111100 0
b111100 ~
b1000000 4
b1000000 /"
b1000000 5
b1000000 0"
b1000000 d
b1000000 q
b1000000 *
b1000000 o
b1000000 e
b1000000 n
b111100 )
b111100 m
b111100 S
b111100 <"
1!
b11001 #
#145000
b100000 D"
0!
b11010 #
#150000
bx D
bx @"
bx Y
bx 7"
xf
xg
bx :
bx 5"
bx ,
bx y
bx h
bx u
0.
0V
06
0i
bx %
bx r
bx R
bx B"
bx 7
bx 2"
bx /
bx z
bx Q
bx A"
bx C
bx ?"
bx X
bx :"
b100 '
b100 t
b100 k
b100 x
b0xxxxxxxxxxxxxxxx00 +
b0xxxxxxxxxxxxxxxx00 p
b0xxxxxxxxxxxxxxxx00 J
b0xxxxxxxxxxxxxxxx00 H"
bx &
bx s
bx Z
bx 4"
bx T
bx %"
bx *"
bx @
bx ="
bx M
bx #"
bx A
bx >"
bx =
bx 8"
bx L
bx ""
bx >
bx 9"
bx P
bx $"
bx I
bx !"
bx $
bx v
bx `
bx '"
b0xxxxxxxxxxxxxxxx F
b0xxxxxxxxxxxxxxxx G"
b0xxxxxxxxxxxxxxxx 8
b0xxxxxxxxxxxxxxxx 3"
b0xxxxxxxxxxxxxxxx H
b0xxxxxxxxxxxxxxxx J"
bx G
bx I"
bx _
bx &"
b0xxxxxxxxxxxxxxxxxxxxxxxxxx00 ]
b0xxxxxxxxxxxxxxxxxxxxxxxxxx00 -"
bx00 K
bx00 F"
bx E
bx E"
bx c
bx ("
b1000100 ?
b1000100 ;"
b1000100 \
b1000100 ."
bx )"
b1000100 2
b1000100 ,"
b1000100 [
b1000100 1"
b1000000 0
b1000000 ~
b1000100 4
b1000100 /"
bx 5
bx 0"
bx d
bx q
b1000100 *
b1000100 o
b1000100 e
b1000100 n
b1000000 )
b1000000 m
b1000000 S
b1000000 <"
1!
b11011 #
#155000
b100000 D"
0!
b11100 #
#160000
b1001000 ?
b1001000 ;"
b1001000 \
b1001000 ."
b1001000 2
b1001000 ,"
b1001000 [
b1001000 1"
b1000100 0
b1000100 ~
b1001000 4
b1001000 /"
b1001000 *
b1001000 o
b1001000 e
b1001000 n
b1000100 )
b1000100 m
b1000100 S
b1000100 <"
1!
b11101 #
#165000
b100000 D"
0!
b11110 #
#170000
b11111 #
