Pipeline/build/sc_wave.vcd
$date
	Tue Jan 04 21:55:38 2022
$end
$version
	Icarus Verilog
$end
$timescale
	1ps
$end
$scope module SC_CPU_tb $end
$var reg 1 ! clk $end
$var reg 1 " reset $end
$var integer 32 # i [31:0] $end
$scope module sc_cpu $end
$var wire 6 $ ALUCU_funct [5:0] $end
$var wire 32 % ALU_b [31:0] $end
$var wire 3 & ALU_mod [2:0] $end
$var wire 32 ' Add1_a [31:0] $end
$var wire 32 ( Add1_b [31:0] $end
$var wire 32 ) Add2_b [31:0] $end
$var wire 1 * DM_R $end
$var wire 1 + DM_W $end
$var wire 32 , DM_W_data [31:0] $end
$var wire 32 - Inst_Addr [31:0] $end
$var wire 1 . MUX32_2_1_c $end
$var wire 1 / MUX32_2_2_c $end
$var wire 32 0 MUX32_2_2_i0 [31:0] $end
$var wire 1 1 MUX32_2_3_c $end
$var wire 32 2 MUX32_2_3_i0 [31:0] $end
$var wire 32 3 MUX32_2_3_i1 [31:0] $end
$var wire 32 4 MUX32_4_1_i0 [31:0] $end
$var wire 32 5 MUX32_4_1_i3 [31:0] $end
$var wire 1 6 MUX5_1_c $end
$var wire 32 7 NPC2 [31:0] $end
$var wire 1 8 PCSrc $end
$var wire 32 9 PC_in [31:0] $end
$var wire 1 : RF_W $end
$var wire 5 ; RF_W_Reg [4:0] $end
$var wire 32 < RF_W_data [31:0] $end
$var wire 32 = SHL32_in [31:0] $end
$var wire 1 ! clk $end
$var wire 1 " reset $end
$var wire 1 > ZF $end
$var wire 32 ? Sig32 [31:0] $end
$var wire 16 @ Sig16 [15:0] $end
$var wire 32 A SHL32_out [31:0] $end
$var wire 28 B SHL26_out [27:0] $end
$var wire 26 C SHL26_in [25:0] $end
$var wire 5 D Rt [4:0] $end
$var wire 5 E Rs [4:0] $end
$var wire 1 F RegWr $end
$var wire 1 G RegDst $end
$var wire 32 H RF_R_data2 [31:0] $end
$var wire 32 I RF_R_data1 [31:0] $end
$var wire 5 J RF_R_Reg2 [4:0] $end
$var wire 5 K RF_R_Reg1 [4:0] $end
$var wire 32 L PC_out [31:0] $end
$var wire 6 M OP_Code [5:0] $end
$var wire 32 N NPC3 [31:0] $end
$var wire 32 O NPC1 [31:0] $end
$var wire 1 P MemtoReg $end
$var wire 1 Q MemWr $end
$var wire 1 R MemRd $end
$var wire 5 S MUX5_1_out [4:0] $end
$var wire 5 T MUX5_1_i1 [4:0] $end
$var wire 5 U MUX5_1_i0 [4:0] $end
$var wire 32 V MUX32_4_1_out [31:0] $end
$var wire 32 W MUX32_4_1_i2 [31:0] $end
$var wire 32 X MUX32_4_1_i1 [31:0] $end
$var wire 2 Y MUX32_4_1_c [1:0] $end
$var wire 32 Z MUX32_2_3_out [31:0] $end
$var wire 32 [ MUX32_2_2_out [31:0] $end
$var wire 32 \ MUX32_2_2_i1 [31:0] $end
$var wire 32 ] MUX32_2_1_out [31:0] $end
$var wire 32 ^ MUX32_2_1_i1 [31:0] $end
$var wire 32 _ MUX32_2_1_i0 [31:0] $end
$var wire 32 ` MAWBout [31:0] $end
$var wire 1 a Jump $end
$var wire 32 b Inst [31:0] $end
$var wire 16 c Imm16 [15:0] $end
$var wire 32 d IDEXout [31:0] $end
$var wire 32 e IDEX_Rtout [31:0] $end
$var wire 6 f Func [5:0] $end
$var wire 32 g FIIDout [31:0] $end
$var wire 32 h EXMAout [31:0] $end
$var wire 32 i EXMA_Rtout [31:0] $end
$var wire 32 j DM_R_data [31:0] $end
$var wire 32 k DM_Addr [31:0] $end
$var wire 1 l Branch $end
$var wire 32 m Add2_c [31:0] $end
$var wire 32 n Add2_a [31:0] $end
$var wire 32 o Add1_c [31:0] $end
$var wire 1 p ALU_z $end
$var wire 1 q ALU_o $end
$var wire 32 r ALU_c [31:0] $end
$var wire 32 s ALU_a [31:0] $end
$var wire 1 t ALUSrc $end
$var wire 2 u ALUOp [1:0] $end
$var wire 3 v ALUCtrl [2:0] $end
$scope module add1 $end
$var wire 32 w a [31:0] $end
$var wire 32 x b [31:0] $end
$var wire 32 y c [31:0] $end
$upscope $end
$scope module add2 $end
$var wire 32 z b [31:0] $end
$var wire 32 { c [31:0] $end
$var wire 32 | a [31:0] $end
$upscope $end
$scope module alu $end
$var wire 32 } b [31:0] $end
$var wire 3 ~ mod [2:0] $end
$var wire 32 !" a [31:0] $end
$var reg 32 "" out [31:0] $end
$var reg 1 q overflow $end
$var reg 1 p zero $end
$upscope $end
$scope module alucu $end
$var wire 6 #" funct [5:0] $end
$var wire 2 $" ALUOp [1:0] $end
$var reg 3 %" ALUCtrl [2:0] $end
$upscope $end
$scope module dm $end
$var wire 1 * R $end
$var wire 1 + W $end
$var wire 32 &" W_data [31:0] $end
$var wire 32 '" Addr [31:0] $end
$var reg 32 (" R_data [31:0] $end
$var integer 32 )" fd1 [31:0] $end
$var integer 32 *" i [31:0] $end
$upscope $end
$scope module exma $end
$var wire 32 +" ALUOutin [31:0] $end
$var wire 1 p Flagin $end
$var wire 32 ," NPC2in [31:0] $end
$var wire 32 -" NPC3in [31:0] $end
$var wire 1 ! clk $end
$var wire 32 ." Rtin [31:0] $end
$var wire 32 /" IRin [31:0] $end
$var reg 32 0" ALUOut [31:0] $end
$var reg 32 1" ALUOutout [31:0] $end
$var reg 1 2" Flag $end
$var reg 1 > Flagout $end
$var reg 32 3" IR [31:0] $end
$var reg 32 4" IRout [31:0] $end
$var reg 32 5" NPC2 [31:0] $end
$var reg 32 6" NPC2out [31:0] $end
$var reg 32 7" NPC3 [31:0] $end
$var reg 32 8" NPC3out [31:0] $end
$var reg 32 9" Rt [31:0] $end
$var reg 32 :" Rtout [31:0] $end
$upscope $end
$scope module exmcu $end
$var wire 32 ;" Inst [31:0] $end
$var reg 2 <" ALUOp [1:0] $end
$var reg 1 t ALUSrc $end
$var reg 6 =" OP_Code [5:0] $end
$upscope $end
$scope module fiid $end
$var wire 32 >" NPC1in [31:0] $end
$var wire 1 ! clk $end
$var wire 32 ?" IRin [31:0] $end
$var reg 32 @" IRout [31:0] $end
$var reg 16 A" Imm16 [15:0] $end
$var reg 32 B" Inst [31:0] $end
$var reg 32 C" NPC1 [31:0] $end
$var reg 32 D" NPC1out [31:0] $end
$var reg 6 E" OP_Code [5:0] $end
$var reg 5 F" Rs [4:0] $end
$var reg 5 G" Rt [4:0] $end
$upscope $end
$scope module idex $end
$var wire 32 H" IRin [31:0] $end
$var wire 32 I" NPC1in [31:0] $end
$var wire 1 ! clk $end
$var wire 32 J" Rtin [31:0] $end
$var wire 32 K" Rsin [31:0] $end
$var wire 32 L" Imm32in [31:0] $end
$var reg 32 M" IR [31:0] $end
$var reg 32 N" IRout [31:0] $end
$var reg 32 O" Imm32 [31:0] $end
$var reg 32 P" Imm32out [31:0] $end
$var reg 32 Q" NPC1 [31:0] $end
$var reg 32 R" NPC1out [31:0] $end
$var reg 32 S" Rs [31:0] $end
$var reg 32 T" Rsout [31:0] $end
$var reg 32 U" Rt [31:0] $end
$var reg 32 V" Rtout [31:0] $end
$upscope $end
$scope module im $end
$var wire 32 W" Addr [31:0] $end
$var reg 32 X" Inst [31:0] $end
$upscope $end
$scope module mamcu $end
$var wire 32 Y" Inst [31:0] $end
$var reg 1 l Branch $end
$var reg 1 a Jump $end
$var reg 1 R MemRd $end
$var reg 1 Q MemWr $end
$var reg 6 Z" OP_Code [5:0] $end
$upscope $end
$scope module mawb $end
$var wire 32 [" ALUOutin [31:0] $end
$var wire 32 \" IRin [31:0] $end
$var wire 32 ]" MEMOutin [31:0] $end
$var wire 1 ! clk $end
$var reg 32 ^" ALUOut [31:0] $end
$var reg 32 _" ALUOutout [31:0] $end
$var reg 32 `" IR [31:0] $end
$var reg 32 a" IRout [31:0] $end
$var reg 32 b" MEMOut [31:0] $end
$var reg 32 c" MEMOutout [31:0] $end
$upscope $end
$scope module mux32_2_1 $end
$var wire 1 . Ctrl $end
$var wire 32 d" i0 [31:0] $end
$var wire 32 e" i1 [31:0] $end
$var wire 32 f" out [31:0] $end
$upscope $end
$scope module mux32_2_2 $end
$var wire 1 / Ctrl $end
$var wire 32 g" i0 [31:0] $end
$var wire 32 h" i1 [31:0] $end
$var wire 32 i" out [31:0] $end
$upscope $end
$scope module mux32_2_3 $end
$var wire 1 1 Ctrl $end
$var wire 32 j" i0 [31:0] $end
$var wire 32 k" i1 [31:0] $end
$var wire 32 l" out [31:0] $end
$upscope $end
$scope module mux32_4_1 $end
$var wire 2 m" Ctrl [1:0] $end
$var wire 32 n" i0 [31:0] $end
$var wire 32 o" i1 [31:0] $end
$var wire 32 p" i2 [31:0] $end
$var wire 32 q" i3 [31:0] $end
$var wire 32 r" out [31:0] $end
$upscope $end
$scope module mux5 $end
$var wire 1 6 Ctrl $end
$var wire 5 s" i0 [4:0] $end
$var wire 5 t" i1 [4:0] $end
$var wire 5 u" out [4:0] $end
$upscope $end
$scope module pc $end
$var wire 32 v" addrin [31:0] $end
$var wire 1 ! clk $end
$var wire 1 " reset $end
$var reg 32 w" addrout [31:0] $end
$upscope $end
$scope module rf $end
$var wire 5 x" R_Reg1 [4:0] $end
$var wire 5 y" R_Reg2 [4:0] $end
$var wire 1 : W $end
$var wire 5 z" W_Reg [4:0] $end
$var wire 32 {" W_data [31:0] $end
$var wire 1 ! clk $end
$var wire 32 |" R_data2 [31:0] $end
$var wire 32 }" R_data1 [31:0] $end
$var integer 32 ~" fd1 [31:0] $end
$var integer 32 !# i [31:0] $end
$upscope $end
$scope module shl2_26 $end
$var wire 26 "# in [25:0] $end
$var wire 28 ## out [27:0] $end
$upscope $end
$scope module shl2_32 $end
$var wire 32 $# in [31:0] $end
$var wire 32 %# out [31:0] $end
$upscope $end
$scope module sigext $end
$var wire 16 &# in [15:0] $end
$var wire 32 '# out [31:0] $end
$upscope $end
$scope module wbmcu $end
$var wire 32 (# Inst [31:0] $end
$var reg 1 P MemtoReg $end
$var reg 6 )# OP_Code [5:0] $end
$var reg 1 G RegDst $end
$var reg 1 F RegWr $end
$upscope $end
$upscope $end
$upscope $end
$enddefinitions $end
#0
$dumpvars
bx )#
bx (#
b0xxxxxxxxxxxxxxxx '#
bx &#
bx00 %#
bx $#
bx00 ##
bx "#
b100000 !#
b10 ~"
bx }"
bx |"
bx {"
bx z"
bx y"
bx x"
b0 w"
b100 v"
bx u"
bx t"
bx s"
bz r"
bz q"
bx p"
bx o"
bz n"
b0 m"
b100 l"
bz k"
b100 j"
bx i"
bx h"
bx g"
bx f"
bx e"
bx d"
bx c"
bx b"
bx a"
bx `"
bx _"
bx ^"
bx ]"
bx \"
bx ["
bx Z"
bx Y"
b10010000000100000 X"
b0 W"
bx V"
bx U"
bx T"
bx S"
bx R"
bx Q"
bx P"
bx O"
bx N"
bx M"
b0xxxxxxxxxxxxxxxx L"
bx K"
bx J"
bx I"
bx H"
bx G"
bx F"
bx E"
bx D"
bx C"
bx B"
bx A"
bx @"
b10010000000100000 ?"
b100 >"
bx ="
b0 <"
bx ;"
bx :"
bx 9"
bx 8"
bx 7"
bx 6"
bx 5"
bx 4"
bx 3"
x2"
bx 1"
bx 0"
bx /"
bx ."
bx00 -"
bx ,"
bx +"
bx *"
bx )"
bx ("
bx '"
bx &"
b100 %"
b0 $"
bx #"
bx ""
bx !"
b100 ~
bx }
bx |
bx {
bx00 z
b100 y
b0 x
b100 w
b100 v
b0 u
0t
bx s
bx r
xq
xp
b100 o
bx n
bx m
0l
bx k
bx j
bx i
bx h
bx g
bx f
bx e
bx d
bx c
b10010000000100000 b
0a
bx `
bx _
bx ^
bx ]
bx \
bx [
b100 Z
b0 Y
bx X
bx W
bz V
bx U
bx T
bx S
0R
0Q
0P
bx O
bx00 N
bx M
b0 L
bx K
bx J
bx I
bx H
0G
0F
bx E
bx D
bx C
bx00 B
bx00 A
bx @
b0xxxxxxxxxxxxxxxx ?
x>
bx =
bx <
bx ;
0:
b100 9
08
bx 7
06
bz 5
bz 4
bz 3
b100 2
01
bx 0
0/
0.
b0 -
bx ,
0+
0*
bx00 )
b0 (
b100 '
b100 &
bx %
bx $
bx #
1"
0!
$end
#5000
0"
#10000
b100 C"
b10010000000100000 B"
b0xxxxxxxxxxxxxxxx O"
bx00 7"
b1000000010100000100010 b
b1000000010100000100010 ?"
b1000000010100000100010 X"
b1000 9
b1000 v"
b1000 Z
b1000 l"
b100 -
b100 W"
b1000 2
b1000 j"
b1000 o
b1000 y
b1000 >"
b100 (
b100 x
b100 L
b100 w"
1!
b0 #
#15000
b100000 !#
0!
b1 #
#20000
b10 H
b10 J"
b10 |"
b1 I
b1 K"
b1 }"
b0xxxxxxxxxxxxxxxx00 )
b0xxxxxxxxxxxxxxxx00 z
b0xxxxxxxxxxxxxxxx00 A
b0xxxxxxxxxxxxxxxx00 %#
b10000000100000 ?
b10000000100000 L"
b10000000100000 '#
b10000000100000 @
b10000000100000 &#
b1 J
b1 y"
b0 K
b0 x"
bx00 X
bx00 8"
bx00 o"
b0xxxxxxxxxxxxxxxx =
b0xxxxxxxxxxxxxxxx $#
b0xxxxxxxxxxxxxxxx \
b0xxxxxxxxxxxxxxxx P"
b0xxxxxxxxxxxxxxxx h"
b10000000100000 c
b10000000100000 A"
b1 D
b1 G"
b0 E
b0 F"
b0 M
b0 E"
b100 O
b100 D"
b100 I"
b1100 C"
b10010000000100000 g
b10010000000100000 @"
b10010000000100000 H"
b1000000010100000100010 B"
b1000000011000000100100 b
b1000000011000000100100 ?"
b1000000011000000100100 X"
b1100 9
b1100 v"
b1100 Z
b1100 l"
b1000 -
b1000 W"
b1100 2
b1100 j"
b1100 o
b1100 y
b1100 >"
b1000 (
b1000 x
b1000 L
b1000 w"
1!
b10 #
#25000
b100000 !#
0!
b11 #
#30000
b1 H
b1 J"
b1 |"
b10 I
b10 K"
b10 }"
b10100000100010 ?
b10100000100010 L"
b10100000100010 '#
b10100000100010 @
b10100000100010 &#
b0 J
b0 y"
b1 K
b1 x"
b10100000100010 c
b10100000100010 A"
b0 D
b0 G"
b1 E
b1 F"
b1100 O
b1100 D"
b1100 I"
b1000000010100000100010 g
b1000000010100000100010 @"
b1000000010100000100010 H"
b1000000011000000100100 B"
b10010000000100000 M"
b10000000100000 O"
b10 U"
b1 S"
b100 Q"
b110011100000100101 b
b110011100000100101 ?"
b110011100000100101 X"
b10000 9
b10000 v"
b10000 Z
b10000 l"
b1100 -
b1100 W"
b10000 2
b10000 j"
b10000 o
b10000 y
b10000 >"
b1100 (
b1100 x
b1100 L
b1100 w"
1!
b100 #
#35000
b100000 !#
0!
b101 #
#40000
b100 &
b100 ~
b100 v
b100 %"
0p
0q
b1001000000010000000 B
b1001000000010000000 ##
b10010000000100000 C
b10010000000100000 "#
b100000 $
b100000 #"
b100000 f
b10 u
b10 $"
b10 <"
b0 ="
b1000000010000100 7
b1000000010000100 ,"
b1000000010000100 m
b1000000010000100 {
b1000000010000000 )
b1000000010000000 z
b1000000010000000 A
b1000000010000000 %#
b10 %
b10 }
b10 [
b10 i"
b11 r
b11 ""
b11 +"
b1001000000010000000 N
b1001000000010000000 -"
b11000000100100 ?
b11000000100100 L"
b11000000100100 '#
b11000000100100 @
b11000000100100 &#
b10010000000100000 d
b10010000000100000 /"
b10010000000100000 ;"
b10010000000100000 N"
b1000000010100000100010 M"
b10000000100000 =
b10000000100000 $#
b10000000100000 \
b10000000100000 P"
b10000000100000 h"
b10100000100010 O"
b10 0
b10 g"
b10 e
b10 ."
b10 V"
b1 U"
b1 s
b1 !"
b1 T"
b10 S"
b100 n
b100 |
b100 R"
b1100 Q"
b11000000100100 c
b11000000100100 A"
b10100 C"
b1000000011000000100100 g
b1000000011000000100100 @"
b1000000011000000100100 H"
b110011100000100101 B"
b10001100011000000000000000000000 b
b10001100011000000000000000000000 ?"
b10001100011000000000000000000000 X"
b10100 9
b10100 v"
b10100 Z
b10100 l"
b10000 -
b10000 W"
b10100 2
b10100 j"
b10100 o
b10100 y
b10100 >"
b10000 (
b10000 x
b10000 L
b10000 w"
1!
b110 #
#45000
b100000 !#
0!
b111 #
#50000
b111 H
b111 J"
b111 |"
b1 I
b1 K"
b1 }"
b110 &
b110 ~
b110 v
b110 %"
b11100000100101 ?
b11100000100101 L"
b11100000100101 '#
b11100000100101 @
b11100000100101 &#
b11 J
b11 y"
b0 K
b0 x"
b100000001010000010001000 N
b100000001010000010001000 -"
b100000001010000010001000 B
b100000001010000010001000 ##
b1000000010100000100010 C
b1000000010100000100010 "#
b100010 $
b100010 #"
b100010 f
b10 u
b10 $"
b10 <"
b1010000010001000 )
b1010000010001000 z
b1010000010001000 A
b1010000010001000 %#
b1 %
b1 }
b1 [
b1 i"
b1 r
b1 ""
b1 +"
b11100000100101 c
b11100000100101 A"
b11 D
b11 G"
b0 E
b0 F"
b10100 O
b10100 D"
b10100 I"
b110011100000100101 g
b110011100000100101 @"
b110011100000100101 H"
b10001100011000000000000000000000 B"
b1000000010100000100010 d
b1000000010100000100010 /"
b1000000010100000100010 ;"
b1000000010100000100010 N"
b1000000011000000100100 M"
b10100000100010 =
b10100000100010 $#
b10100000100010 \
b10100000100010 P"
b10100000100010 h"
b11000000100100 O"
b1 0
b1 g"
b1 e
b1 ."
b1 V"
b10 s
b10 !"
b10 T"
b1010000010010100 7
b1010000010010100 ,"
b1010000010010100 m
b1010000010010100 {
b1100 n
b1100 |
b1100 R"
02"
b10010000000100000 3"
b11 0"
b10 9"
b1000000010000100 5"
b1001000000010000000 7"
b10001100001000010000000000000100 b
b10001100001000010000000000000100 ?"
b10001100001000010000000000000100 X"
b11000 9
b11000 v"
b11000 Z
b11000 l"
b10100 -
b10100 W"
b11000 2
b11000 j"
b11000 o
b11000 y
b11000 >"
b10100 (
b10100 x
b10100 L
b10100 w"
1!
b1000 #
#55000
b100000 !#
0!
b1001 #
#60000
1p
b0 r
b0 ""
b0 +"
b0 &
b0 ~
b0 v
b0 %"
b1 H
b1 J"
b1 |"
b111 I
b111 K"
b111 }"
b0 Z"
b100000001100000010010000 N
b100000001100000010010000 -"
b100000001100000010010000 B
b100000001100000010010000 ##
b1000000011000000100100 C
b1000000011000000100100 "#
b100100 $
b100100 #"
b100100 f
b10 u
b10 $"
b10 <"
b1100000010011100 7
b1100000010011100 ,"
b1100000010011100 m
b1100000010011100 {
b1100000010010000 )
b1100000010010000 z
b1100000010010000 A
b1100000010010000 %#
b0 ?
b0 L"
b0 '#
b0 @
b0 &#
b0 J
b0 y"
b11 K
b11 x"
0>
b10010000000100000 h
b10010000000100000 4"
b10010000000100000 Y"
b10010000000100000 \"
b1000000010100000100010 3"
b11 k
b11 '"
b11 1"
b11 ["
b1 0"
b10 ,
b10 &"
b10 i
b10 :"
b1 9"
b1000000010000100 W
b1000000010000100 6"
b1000000010000100 p"
b1010000010010100 5"
b1001000000010000000 X
b1001000000010000000 8"
b1001000000010000000 o"
b100000001010000010001000 7"
b1000000011000000100100 d
b1000000011000000100100 /"
b1000000011000000100100 ;"
b1000000011000000100100 N"
b110011100000100101 M"
b11000000100100 =
b11000000100100 $#
b11000000100100 \
b11000000100100 P"
b11000000100100 h"
b11100000100101 O"
b111 U"
b1 S"
b10100 Q"
b0 c
b0 A"
b0 D
b0 G"
b11 E
b11 F"
b100011 M
b100011 E"
b11100 C"
b10001100011000000000000000000000 g
b10001100011000000000000000000000 @"
b10001100011000000000000000000000 H"
b10001100001000010000000000000100 B"
b10001100010000100000000000000011 b
b10001100010000100000000000000011 ?"
b10001100010000100000000000000011 X"
b11100 9
b11100 v"
b11100 Z
b11100 l"
b11000 -
b11000 W"
b11100 2
b11100 j"
b11100 o
b11100 y
b11100 >"
b11000 (
b11000 x
b11000 L
b11000 w"
1!
b1010 #
#65000
b100000 !#
0!
b1011 #
#70000
b10 H
b10 J"
b10 |"
b10 I
b10 K"
b10 }"
b1 &
b1 ~
b1 v
b1 %"
b100 ?
b100 L"
b100 '#
b100 @
b100 &#
b1 J
b1 y"
b1 K
b1 x"
b11001110000010010100 N
b11001110000010010100 -"
b11001110000010010100 B
b11001110000010010100 ##
b110011100000100101 C
b110011100000100101 "#
b100101 $
b100101 #"
b100101 f
b10 u
b10 $"
b10 <"
b1110000010010100 )
b1110000010010100 z
b1110000010010100 A
b1110000010010100 %#
b111 %
b111 }
b111 [
b111 i"
0p
b111 r
b111 ""
b111 +"
b100 c
b100 A"
b1 D
b1 G"
b1 E
b1 F"
b11100 O
b11100 D"
b11100 I"
b10001100001000010000000000000100 g
b10001100001000010000000000000100 @"
b10001100001000010000000000000100 H"
b10001100010000100000000000000011 B"
b110011100000100101 d
b110011100000100101 /"
b110011100000100101 ;"
b110011100000100101 N"
b10001100011000000000000000000000 M"
b11100000100101 =
b11100000100101 $#
b11100000100101 \
b11100000100101 P"
b11100000100101 h"
b0 O"
b111 0
b111 g"
b111 e
b111 ."
b111 V"
b1 U"
b1 s
b1 !"
b1 T"
b111 S"
b1110000010101000 7
b1110000010101000 ,"
b1110000010101000 m
b1110000010101000 {
b10100 n
b10100 |
b10100 R"
12"
b1000000010100000100010 h
b1000000010100000100010 4"
b1000000010100000100010 Y"
b1000000010100000100010 \"
b1000000011000000100100 3"
b1 k
b1 '"
b1 1"
b1 ["
b0 0"
b1 ,
b1 &"
b1 i
b1 :"
b1010000010010100 W
b1010000010010100 6"
b1010000010010100 p"
b1100000010011100 5"
b100000001010000010001000 X
b100000001010000010001000 8"
b100000001010000010001000 o"
b100000001100000010010000 7"
b10010000000100000 `"
b11 ^"
b10101100011000110000000000000000 b
b10101100011000110000000000000000 ?"
b10101100011000110000000000000000 X"
b100000 9
b100000 v"
b100000 Z
b100000 l"
b11100 -
b11100 W"
b100000 2
b100000 j"
b100000 o
b100000 y
b100000 >"
b11100 (
b11100 x
b11100 L
b11100 w"
1!
b1100 #
#75000
b100000 !#
0!
b1101 #
#80000
b100 ;
b100 z"
b100 S
b100 u"
b100 &
b100 ~
b100 v
b100 %"
b0 H
b0 J"
b0 |"
b0 I
b0 K"
b0 }"
1:
1F
16
1G
b0 )#
b100 T
b100 t"
b1 U
b1 s"
b11 <
b11 {"
b11 ]
b11 f"
b1100000000000000000000000 N
b1100000000000000000000000 -"
b1100000000000000000000000 B
b1100000000000000000000000 ##
b11000000000000000000000 C
b11000000000000000000000 "#
b0 $
b0 #"
b0 f
1/
1t
b0 u
b0 $"
b0 <"
b100011 ="
b10100 7
b10100 ,"
b10100 m
b10100 {
b0 )
b0 z
b0 A
b0 %#
b0 %
b0 }
b0 [
b0 i"
b111 r
b111 ""
b111 +"
b11 ?
b11 L"
b11 '#
b11 @
b11 &#
b10 J
b10 y"
b10 K
b10 x"
b10010000000100000 `
b10010000000100000 a"
b10010000000100000 (#
b1000000010100000100010 `"
b11 _
b11 _"
b11 d"
b1 ^"
1>
02"
b1000000011000000100100 h
b1000000011000000100100 4"
b1000000011000000100100 Y"
b1000000011000000100100 \"
b110011100000100101 3"
b0 k
b0 '"
b0 1"
b0 ["
b111 0"
b111 9"
b1100000010011100 W
b1100000010011100 6"
b1100000010011100 p"
b1110000010101000 5"
b100000001100000010010000 X
b100000001100000010010000 8"
b100000001100000010010000 o"
b11001110000010010100 7"
b10001100011000000000000000000000 d
b10001100011000000000000000000000 /"
b10001100011000000000000000000000 ;"
b10001100011000000000000000000000 N"
b10001100001000010000000000000100 M"
b0 =
b0 $#
b0 \
b0 P"
b0 h"
b100 O"
b1 0
b1 g"
b1 e
b1 ."
b1 V"
b10 U"
b111 s
b111 !"
b111 T"
b10 S"
b11100 Q"
b11 c
b11 A"
b10 D
b10 G"
b10 E
b10 F"
b100100 C"
b10001100010000100000000000000011 g
b10001100010000100000000000000011 @"
b10001100010000100000000000000011 H"
b10101100011000110000000000000000 B"
b10101100100000110000000000000011 b
b10101100100000110000000000000011 ?"
b10101100100000110000000000000011 X"
b100100 9
b100100 v"
b100100 Z
b100100 l"
b100000 -
b100000 W"
b100100 2
b100100 j"
b100100 o
b100100 y
b100100 >"
b100000 (
b100000 x
b100000 L
b100000 w"
1!
b1110 #
#85000
b100000 !#
0!
b1111 #
#90000
b111 H
b111 J"
b111 |"
b111 I
b111 K"
b111 }"
b100 &
b100 ~
b100 v
b100 %"
b101 ;
b101 z"
b101 S
b101 u"
b0 ?
b0 L"
b0 '#
b0 @
b0 &#
b11 J
b11 y"
b11 K
b11 x"
b100001000000000000010000 N
b100001000000000000010000 -"
b100001000000000000010000 B
b100001000000000000010000 ##
b1000010000000000000100 C
b1000010000000000000100 "#
b100 $
b100 #"
b100 f
1/
1t
b100 %
b100 }
b100 [
b100 i"
b10000 )
b10000 z
b10000 A
b10000 %#
b110 r
b110 ""
b110 +"
16
1G
1:
1F
b101 T
b101 t"
b0 U
b0 s"
b1 <
b1 {"
b1 ]
b1 f"
b0 c
b0 A"
b11 D
b11 G"
b11 E
b11 F"
b101011 M
b101011 E"
b100100 O
b100100 D"
b100100 I"
b10101100011000110000000000000000 g
b10101100011000110000000000000000 @"
b10101100011000110000000000000000 H"
b10101100100000110000000000000011 B"
b10001100001000010000000000000100 d
b10001100001000010000000000000100 /"
b10001100001000010000000000000100 ;"
b10001100001000010000000000000100 N"
b10001100010000100000000000000011 M"
b100 =
b100 $#
b100 \
b100 P"
b100 h"
b11 O"
b10 0
b10 g"
b10 e
b10 ."
b10 V"
b0 U"
b10 s
b10 !"
b10 T"
b0 S"
b101100 7
b101100 ,"
b101100 m
b101100 {
b11100 n
b11100 |
b11100 R"
0>
b110011100000100101 h
b110011100000100101 4"
b110011100000100101 Y"
b110011100000100101 \"
b10001100011000000000000000000000 3"
b111 k
b111 '"
b111 1"
b111 ["
b111 ,
b111 &"
b111 i
b111 :"
b1 9"
b1110000010101000 W
b1110000010101000 6"
b1110000010101000 p"
b10100 5"
b11001110000010010100 X
b11001110000010010100 8"
b11001110000010010100 o"
b1100000000000000000000000 7"
b1000000010100000100010 `
b1000000010100000100010 a"
b1000000010100000100010 (#
b1000000011000000100100 `"
b1 _
b1 _"
b1 d"
b0 ^"
b10101100101001010000000000000100 b
b10101100101001010000000000000100 ?"
b10101100101001010000000000000100 X"
b101000 9
b101000 v"
b101000 Z
b101000 l"
b100100 -
b100100 W"
b101000 2
b101000 j"
b101000 o
b101000 y
b101000 >"
b100100 (
b100100 x
b100100 L
b100100 w"
1!
b10000 #
#95000
b100000 !#
0!
b10001 #
#100000
b110 ;
b110 z"
b110 S
b110 u"
b10 j
b10 ("
b10 ]"
b100 &
b100 ~
b100 v
b100 %"
b11 I
b11 K"
b11 }"
16
1G
1:
1F
b110 T
b110 t"
b0 <
b0 {"
b0 ]
b0 f"
1*
1R
b100011 Z"
b1000010000000000000001100 N
b1000010000000000000001100 -"
b1000010000000000000001100 B
b1000010000000000000001100 ##
b10000100000000000000011 C
b10000100000000000000011 "#
b11 $
b11 #"
b11 f
1/
1t
b11 %
b11 }
b11 [
b11 i"
b101000 7
b101000 ,"
b101000 m
b101000 {
b1100 )
b1100 z
b1100 A
b1100 %#
b11 r
b11 ""
b11 +"
b11 ?
b11 L"
b11 '#
b11 @
b11 &#
b100 K
b100 x"
b1000000011000000100100 `
b1000000011000000100100 a"
b1000000011000000100100 (#
b110011100000100101 `"
b0 _
b0 _"
b0 d"
b111 ^"
b10001100011000000000000000000000 h
b10001100011000000000000000000000 4"
b10001100011000000000000000000000 Y"
b10001100011000000000000000000000 \"
b10001100001000010000000000000100 3"
b110 0"
b1 ,
b1 &"
b1 i
b1 :"
b10 9"
b10100 W
b10100 6"
b10100 p"
b101100 5"
b1100000000000000000000000 X
b1100000000000000000000000 8"
b1100000000000000000000000 o"
b100001000000000000010000 7"
b10001100010000100000000000000011 d
b10001100010000100000000000000011 /"
b10001100010000100000000000000011 ;"
b10001100010000100000000000000011 N"
b10101100011000110000000000000000 M"
b11 =
b11 $#
b11 \
b11 P"
b11 h"
b0 O"
b0 0
b0 g"
b0 e
b0 ."
b0 V"
b111 U"
b0 s
b0 !"
b0 T"
b111 S"
b100100 Q"
b11 c
b11 A"
b100 E
b100 F"
b101100 C"
b10101100100000110000000000000011 g
b10101100100000110000000000000011 @"
b10101100100000110000000000000011 H"
b10101100101001010000000000000100 B"
b10101100110001100000000000000100 b
b10101100110001100000000000000100 ?"
b10101100110001100000000000000100 X"
b101100 9
b101100 v"
b101100 Z
b101100 l"
b101000 -
b101000 W"
b101100 2
b101100 j"
b101100 o
b101100 y
b101100 >"
b101000 (
b101000 x
b101000 L
b101000 w"
1!
b10010 #
#105000
b100000 !#
0!
b10011 #
